<?xml version="1.0" encoding="UTF-8"?>
<!-- Do not edit this file with editors other than draw.io -->
<!DOCTYPE svg PUBLIC "-//W3C//DTD SVG 1.1//EN" "http://www.w3.org/Graphics/SVG/1.1/DTD/svg11.dtd">
<svg xmlns="http://www.w3.org/2000/svg" xmlns:xlink="http://www.w3.org/1999/xlink" version="1.1" width="405px" height="395px" viewBox="-0.5 -0.5 405 395" content="&lt;mxfile host=&quot;Electron&quot; modified=&quot;2024-01-26T17:35:56.865Z&quot; agent=&quot;Mozilla/5.0 (Macintosh; Intel Mac OS X 10_15_7) AppleWebKit/537.36 (KHTML, like Gecko) draw.io/23.0.2 Chrome/120.0.6099.109 Electron/28.1.0 Safari/537.36&quot; version=&quot;23.0.2&quot; etag=&quot;vTRDhSom5jN8zSQuPBVU&quot; type=&quot;device&quot; scale=&quot;1&quot; border=&quot;0&quot;&gt;&#10;  &lt;diagram name=&quot;Page-1&quot; id=&quot;5zaV1t2k5m58tbbkzPRL&quot;&gt;&#10;    &lt;mxGraphModel dx=&quot;794&quot; dy=&quot;1214&quot; grid=&quot;1&quot; gridSize=&quot;1&quot; guides=&quot;1&quot; tooltips=&quot;1&quot; connect=&quot;1&quot; arrows=&quot;1&quot; fold=&quot;1&quot; page=&quot;1&quot; pageScale=&quot;1&quot; pageWidth=&quot;850&quot; pageHeight=&quot;1100&quot; math=&quot;0&quot; shadow=&quot;0&quot;&gt;&#10;      &lt;root&gt;&#10;        &lt;mxCell id=&quot;0&quot; /&gt;&#10;        &lt;mxCell id=&quot;1&quot; parent=&quot;0&quot; /&gt;&#10;        &lt;mxCell id=&quot;2&quot; value=&quot;&quot; style=&quot;rounded=0;whiteSpace=wrap;html=1;perimeterSpacing=1;fillStyle=solid;strokeWidth=1;dashed=1;fillColor=none;fontFamily=TradeGothic LT Bold;&quot; vertex=&quot;1&quot; parent=&quot;1&quot;&gt;&#10;          &lt;mxGeometry x=&quot;297&quot; y=&quot;990&quot; width=&quot;99&quot; height=&quot;210&quot; as=&quot;geometry&quot; /&gt;&#10;        &lt;/mxCell&gt;&#10;        &lt;mxCell id=&quot;3&quot; value=&quot;&quot; style=&quot;rounded=0;whiteSpace=wrap;html=1;perimeterSpacing=1;fillStyle=solid;strokeWidth=1;dashed=1;fillColor=none;fontFamily=TradeGothic LT Bold;&quot; vertex=&quot;1&quot; parent=&quot;1&quot;&gt;&#10;          &lt;mxGeometry x=&quot;396&quot; y=&quot;942&quot; width=&quot;105&quot; height=&quot;258&quot; as=&quot;geometry&quot; /&gt;&#10;        &lt;/mxCell&gt;&#10;        &lt;mxCell id=&quot;4&quot; value=&quot;&quot; style=&quot;rounded=0;whiteSpace=wrap;html=1;perimeterSpacing=1;fillStyle=solid;strokeWidth=1;dashed=1;fillColor=none;fontFamily=TradeGothic LT Bold;&quot; vertex=&quot;1&quot; parent=&quot;1&quot;&gt;&#10;          &lt;mxGeometry x=&quot;197&quot; y=&quot;990&quot; width=&quot;100&quot; height=&quot;210&quot; as=&quot;geometry&quot; /&gt;&#10;        &lt;/mxCell&gt;&#10;        &lt;mxCell id=&quot;5&quot; value=&quot;&quot; style=&quot;rounded=0;whiteSpace=wrap;html=1;perimeterSpacing=1;fillStyle=solid;strokeWidth=1;dashed=1;fillColor=none;fontFamily=TradeGothic LT Bold;&quot; vertex=&quot;1&quot; parent=&quot;1&quot;&gt;&#10;          &lt;mxGeometry x=&quot;501&quot; y=&quot;968&quot; width=&quot;100&quot; height=&quot;232&quot; as=&quot;geometry&quot; /&gt;&#10;        &lt;/mxCell&gt;&#10;        &lt;mxCell id=&quot;6&quot; style=&quot;edgeStyle=orthogonalEdgeStyle;rounded=0;orthogonalLoop=1;jettySize=auto;html=1;entryX=0.5;entryY=0;entryDx=0;entryDy=0;fontFamily=TradeGothic LT Bold;&quot; edge=&quot;1&quot; source=&quot;7&quot; target=&quot;9&quot; parent=&quot;1&quot;&gt;&#10;          &lt;mxGeometry relative=&quot;1&quot; as=&quot;geometry&quot; /&gt;&#10;        &lt;/mxCell&gt;&#10;        &lt;mxCell id=&quot;7&quot; value=&quot;Build Component&quot; style=&quot;rounded=0;whiteSpace=wrap;html=1;fillColor=#F0F1F2;strokeColor=#36393d;fontFamily=TradeGothic LT Bold;&quot; vertex=&quot;1&quot; parent=&quot;1&quot;&gt;&#10;          &lt;mxGeometry x=&quot;511&quot; y=&quot;1070&quot; width=&quot;80&quot; height=&quot;50&quot; as=&quot;geometry&quot; /&gt;&#10;        &lt;/mxCell&gt;&#10;        &lt;mxCell id=&quot;8&quot; style=&quot;edgeStyle=orthogonalEdgeStyle;rounded=0;orthogonalLoop=1;jettySize=auto;html=1;entryX=0.5;entryY=0;entryDx=0;entryDy=0;fontFamily=TradeGothic LT Bold;&quot; edge=&quot;1&quot; target=&quot;7&quot; parent=&quot;1&quot;&gt;&#10;          &lt;mxGeometry relative=&quot;1&quot; as=&quot;geometry&quot;&gt;&#10;            &lt;mxPoint x=&quot;550.9999999999998&quot; y=&quot;1050&quot; as=&quot;sourcePoint&quot; /&gt;&#10;          &lt;/mxGeometry&gt;&#10;        &lt;/mxCell&gt;&#10;        &lt;mxCell id=&quot;9&quot; value=&quot;Component Firmware&quot; style=&quot;rounded=1;whiteSpace=wrap;html=1;fillColor=#6241C5;strokeColor=#000000;fontColor=#FFFFFF;fontFamily=TradeGothic LT Bold;&quot; vertex=&quot;1&quot; parent=&quot;1&quot;&gt;&#10;          &lt;mxGeometry x=&quot;511&quot; y=&quot;1140&quot; width=&quot;80&quot; height=&quot;50&quot; as=&quot;geometry&quot; /&gt;&#10;        &lt;/mxCell&gt;&#10;        &lt;mxCell id=&quot;10&quot; value=&quot;&quot; style=&quot;edgeStyle=orthogonalEdgeStyle;rounded=0;orthogonalLoop=1;jettySize=auto;html=1;fontFamily=TradeGothic LT Bold;&quot; edge=&quot;1&quot; source=&quot;12&quot; target=&quot;15&quot; parent=&quot;1&quot;&gt;&#10;          &lt;mxGeometry relative=&quot;1&quot; as=&quot;geometry&quot; /&gt;&#10;        &lt;/mxCell&gt;&#10;        &lt;mxCell id=&quot;11&quot; style=&quot;edgeStyle=orthogonalEdgeStyle;rounded=0;orthogonalLoop=1;jettySize=auto;html=1;entryX=0;entryY=0.5;entryDx=0;entryDy=0;fontFamily=TradeGothic LT Bold;&quot; edge=&quot;1&quot; source=&quot;12&quot; parent=&quot;1&quot;&gt;&#10;          &lt;mxGeometry relative=&quot;1&quot; as=&quot;geometry&quot;&gt;&#10;            &lt;mxPoint x=&quot;307&quot; y=&quot;1095&quot; as=&quot;targetPoint&quot; /&gt;&#10;          &lt;/mxGeometry&gt;&#10;        &lt;/mxCell&gt;&#10;        &lt;mxCell id=&quot;12&quot; value=&quot;Build Environment&quot; style=&quot;rounded=0;whiteSpace=wrap;html=1;fillColor=#F0F1F2;strokeColor=#36393d;fontFamily=TradeGothic LT Bold;&quot; vertex=&quot;1&quot; parent=&quot;1&quot;&gt;&#10;          &lt;mxGeometry x=&quot;207&quot; y=&quot;1070&quot; width=&quot;80&quot; height=&quot;50&quot; as=&quot;geometry&quot; /&gt;&#10;        &lt;/mxCell&gt;&#10;        &lt;mxCell id=&quot;13&quot; value=&quot;&quot; style=&quot;edgeStyle=orthogonalEdgeStyle;rounded=0;orthogonalLoop=1;jettySize=auto;html=1;fontFamily=TradeGothic LT Bold;&quot; edge=&quot;1&quot; source=&quot;14&quot; target=&quot;12&quot; parent=&quot;1&quot;&gt;&#10;          &lt;mxGeometry relative=&quot;1&quot; as=&quot;geometry&quot; /&gt;&#10;        &lt;/mxCell&gt;&#10;        &lt;mxCell id=&quot;14&quot; value=&quot;Shell.nix&quot; style=&quot;rounded=1;whiteSpace=wrap;html=1;fillColor=#FFF601;strokeColor=#36393d;fontFamily=TradeGothic LT Bold;&quot; vertex=&quot;1&quot; parent=&quot;1&quot;&gt;&#10;          &lt;mxGeometry x=&quot;207&quot; y=&quot;1000&quot; width=&quot;80&quot; height=&quot;50&quot; as=&quot;geometry&quot; /&gt;&#10;        &lt;/mxCell&gt;&#10;        &lt;mxCell id=&quot;15&quot; value=&quot;Nix Environment&quot; style=&quot;rounded=1;whiteSpace=wrap;html=1;fillColor=#FFF601;strokeColor=#36393d;fontFamily=TradeGothic LT Bold;&quot; vertex=&quot;1&quot; parent=&quot;1&quot;&gt;&#10;          &lt;mxGeometry x=&quot;207&quot; y=&quot;1140&quot; width=&quot;80&quot; height=&quot;50&quot; as=&quot;geometry&quot; /&gt;&#10;        &lt;/mxCell&gt;&#10;        &lt;mxCell id=&quot;16&quot; style=&quot;edgeStyle=orthogonalEdgeStyle;rounded=0;orthogonalLoop=1;jettySize=auto;html=1;entryX=0.5;entryY=0;entryDx=0;entryDy=0;fontFamily=TradeGothic LT Bold;&quot; edge=&quot;1&quot; source=&quot;17&quot; target=&quot;18&quot; parent=&quot;1&quot;&gt;&#10;          &lt;mxGeometry relative=&quot;1&quot; as=&quot;geometry&quot; /&gt;&#10;        &lt;/mxCell&gt;&#10;        &lt;mxCell id=&quot;17&quot; value=&quot;Build AP&quot; style=&quot;rounded=0;whiteSpace=wrap;html=1;fillColor=#F0F1F2;strokeColor=#36393d;fontFamily=TradeGothic LT Bold;&quot; vertex=&quot;1&quot; parent=&quot;1&quot;&gt;&#10;          &lt;mxGeometry x=&quot;406&quot; y=&quot;1070&quot; width=&quot;80&quot; height=&quot;50&quot; as=&quot;geometry&quot; /&gt;&#10;        &lt;/mxCell&gt;&#10;        &lt;mxCell id=&quot;18&quot; value=&quot;AP Firmware&quot; style=&quot;rounded=1;whiteSpace=wrap;html=1;fillColor=#6241C5;strokeColor=#000000;fontColor=#FFFFFF;fontFamily=TradeGothic LT Bold;&quot; vertex=&quot;1&quot; parent=&quot;1&quot;&gt;&#10;          &lt;mxGeometry x=&quot;406&quot; y=&quot;1140&quot; width=&quot;80&quot; height=&quot;50&quot; as=&quot;geometry&quot; /&gt;&#10;        &lt;/mxCell&gt;&#10;        &lt;mxCell id=&quot;19&quot; value=&quot;&amp;lt;font style=&amp;quot;font-size: 10px;&amp;quot;&amp;gt;Component ID&amp;lt;/font&amp;gt;&quot; style=&quot;rounded=1;whiteSpace=wrap;html=1;fillColor=#FFF601;strokeColor=#36393d;fontFamily=TradeGothic LT Bold;&quot; vertex=&quot;1&quot; parent=&quot;1&quot;&gt;&#10;          &lt;mxGeometry x=&quot;511&quot; y=&quot;1025&quot; width=&quot;80&quot; height=&quot;25&quot; as=&quot;geometry&quot; /&gt;&#10;        &lt;/mxCell&gt;&#10;        &lt;mxCell id=&quot;20&quot; style=&quot;edgeStyle=orthogonalEdgeStyle;rounded=0;orthogonalLoop=1;jettySize=auto;html=1;entryX=0.5;entryY=0;entryDx=0;entryDy=0;fontFamily=TradeGothic LT Bold;&quot; edge=&quot;1&quot; source=&quot;21&quot; target=&quot;17&quot; parent=&quot;1&quot;&gt;&#10;          &lt;mxGeometry relative=&quot;1&quot; as=&quot;geometry&quot; /&gt;&#10;        &lt;/mxCell&gt;&#10;        &lt;mxCell id=&quot;21&quot; value=&quot;&amp;lt;font style=&amp;quot;font-size: 10px;&amp;quot;&amp;gt;Component IDs&amp;lt;/font&amp;gt;&quot; style=&quot;rounded=1;whiteSpace=wrap;html=1;fillColor=#FFF601;strokeColor=#36393d;fontFamily=TradeGothic LT Bold;&quot; vertex=&quot;1&quot; parent=&quot;1&quot;&gt;&#10;          &lt;mxGeometry x=&quot;406&quot; y=&quot;1025&quot; width=&quot;80&quot; height=&quot;25&quot; as=&quot;geometry&quot; /&gt;&#10;        &lt;/mxCell&gt;&#10;        &lt;mxCell id=&quot;22&quot; value=&quot;&amp;lt;font style=&amp;quot;font-size: 10px;&amp;quot;&amp;gt;Replace Token&amp;lt;/font&amp;gt;&quot; style=&quot;rounded=1;whiteSpace=wrap;html=1;fillColor=#7DEA49;strokeColor=#000000;fontFamily=TradeGothic LT Bold;&quot; vertex=&quot;1&quot; parent=&quot;1&quot;&gt;&#10;          &lt;mxGeometry x=&quot;406&quot; y=&quot;975&quot; width=&quot;80&quot; height=&quot;25&quot; as=&quot;geometry&quot; /&gt;&#10;        &lt;/mxCell&gt;&#10;        &lt;mxCell id=&quot;23&quot; value=&quot;&quot; style=&quot;rounded=1;whiteSpace=wrap;html=1;fillColor=#6241C5;strokeColor=#000000;fontColor=#FFFFFF;fontFamily=TradeGothic LT Bold;&quot; vertex=&quot;1&quot; parent=&quot;1&quot;&gt;&#10;          &lt;mxGeometry x=&quot;207&quot; y=&quot;1210&quot; width=&quot;50&quot; height=&quot;20&quot; as=&quot;geometry&quot; /&gt;&#10;        &lt;/mxCell&gt;&#10;        &lt;mxCell id=&quot;24&quot; value=&quot;Attacker does not have access&quot; style=&quot;text;html=1;strokeColor=none;fillColor=none;align=left;verticalAlign=middle;whiteSpace=wrap;rounded=0;fontFamily=TradeGothic LT Bold;&quot; vertex=&quot;1&quot; parent=&quot;1&quot;&gt;&#10;          &lt;mxGeometry x=&quot;272&quot; y=&quot;1205&quot; width=&quot;170&quot; height=&quot;30&quot; as=&quot;geometry&quot; /&gt;&#10;        &lt;/mxCell&gt;&#10;        &lt;mxCell id=&quot;25&quot; value=&quot;&quot; style=&quot;rounded=1;whiteSpace=wrap;html=1;fillColor=#FFF601;strokeColor=#000000;fontFamily=TradeGothic LT Bold;&quot; vertex=&quot;1&quot; parent=&quot;1&quot;&gt;&#10;          &lt;mxGeometry x=&quot;207&quot; y=&quot;1260&quot; width=&quot;50&quot; height=&quot;20&quot; as=&quot;geometry&quot; /&gt;&#10;        &lt;/mxCell&gt;&#10;        &lt;mxCell id=&quot;26&quot; value=&quot;Attacker always has access&quot; style=&quot;text;html=1;strokeColor=none;fillColor=none;align=left;verticalAlign=middle;whiteSpace=wrap;rounded=0;fontFamily=TradeGothic LT Bold;&quot; vertex=&quot;1&quot; parent=&quot;1&quot;&gt;&#10;          &lt;mxGeometry x=&quot;272&quot; y=&quot;1255&quot; width=&quot;170&quot; height=&quot;30&quot; as=&quot;geometry&quot; /&gt;&#10;        &lt;/mxCell&gt;&#10;        &lt;mxCell id=&quot;27&quot; value=&quot;&quot; style=&quot;rounded=1;whiteSpace=wrap;html=1;fillColor=#f5f5f5;fontColor=#333333;strokeColor=#000000;fontFamily=TradeGothic LT Bold;&quot; vertex=&quot;1&quot; parent=&quot;1&quot;&gt;&#10;          &lt;mxGeometry x=&quot;207&quot; y=&quot;1285&quot; width=&quot;50&quot; height=&quot;20&quot; as=&quot;geometry&quot; /&gt;&#10;        &lt;/mxCell&gt;&#10;        &lt;mxCell id=&quot;28&quot; value=&quot;Utility tool, required by each team&quot; style=&quot;text;html=1;strokeColor=none;fillColor=none;align=left;verticalAlign=middle;whiteSpace=wrap;rounded=0;fontFamily=TradeGothic LT Bold;&quot; vertex=&quot;1&quot; parent=&quot;1&quot;&gt;&#10;          &lt;mxGeometry x=&quot;272&quot; y=&quot;1280&quot; width=&quot;190&quot; height=&quot;30&quot; as=&quot;geometry&quot; /&gt;&#10;        &lt;/mxCell&gt;&#10;        &lt;mxCell id=&quot;29&quot; value=&quot;&quot; style=&quot;rounded=1;whiteSpace=wrap;html=1;fillColor=#7DEA49;strokeColor=#000000;fontFamily=TradeGothic LT Bold;&quot; vertex=&quot;1&quot; parent=&quot;1&quot;&gt;&#10;          &lt;mxGeometry x=&quot;207&quot; y=&quot;1235&quot; width=&quot;50&quot; height=&quot;20&quot; as=&quot;geometry&quot; /&gt;&#10;        &lt;/mxCell&gt;&#10;        &lt;mxCell id=&quot;30&quot; value=&quot;Attacker has indirect access in some scenarios&quot; style=&quot;text;html=1;strokeColor=none;fillColor=none;align=left;verticalAlign=middle;whiteSpace=wrap;rounded=0;fontFamily=TradeGothic LT Bold;&quot; vertex=&quot;1&quot; parent=&quot;1&quot;&gt;&#10;          &lt;mxGeometry x=&quot;272&quot; y=&quot;1230&quot; width=&quot;255&quot; height=&quot;30&quot; as=&quot;geometry&quot; /&gt;&#10;        &lt;/mxCell&gt;&#10;        &lt;mxCell id=&quot;31&quot; style=&quot;edgeStyle=orthogonalEdgeStyle;rounded=0;orthogonalLoop=1;jettySize=auto;html=1;entryX=0.5;entryY=0;entryDx=0;entryDy=0;fontFamily=TradeGothic LT Bold;&quot; edge=&quot;1&quot; source=&quot;32&quot; target=&quot;33&quot; parent=&quot;1&quot;&gt;&#10;          &lt;mxGeometry relative=&quot;1&quot; as=&quot;geometry&quot; /&gt;&#10;        &lt;/mxCell&gt;&#10;        &lt;mxCell id=&quot;32&quot; value=&quot;Build Deployment&quot; style=&quot;rounded=0;whiteSpace=wrap;html=1;fillColor=#F0F1F2;strokeColor=#36393d;fontFamily=TradeGothic LT Bold;&quot; vertex=&quot;1&quot; parent=&quot;1&quot;&gt;&#10;          &lt;mxGeometry x=&quot;307&quot; y=&quot;1070&quot; width=&quot;80&quot; height=&quot;50&quot; as=&quot;geometry&quot; /&gt;&#10;        &lt;/mxCell&gt;&#10;        &lt;mxCell id=&quot;33&quot; value=&quot;Global&amp;amp;nbsp;Secrets&quot; style=&quot;rounded=1;whiteSpace=wrap;html=1;fillColor=#6241C5;strokeColor=#000000;fontColor=#FFFFFF;fontFamily=TradeGothic LT Bold;&quot; vertex=&quot;1&quot; parent=&quot;1&quot;&gt;&#10;          &lt;mxGeometry x=&quot;307&quot; y=&quot;1140&quot; width=&quot;80&quot; height=&quot;50&quot; as=&quot;geometry&quot; /&gt;&#10;        &lt;/mxCell&gt;&#10;        &lt;mxCell id=&quot;34&quot; value=&quot;&amp;lt;font style=&amp;quot;font-size: 10px;&amp;quot;&amp;gt;Performed once per component&amp;lt;/font&amp;gt;&quot; style=&quot;text;html=1;strokeColor=none;fillColor=none;align=center;verticalAlign=middle;whiteSpace=wrap;rounded=0;fontFamily=TradeGothic LT Bold;&quot; vertex=&quot;1&quot; parent=&quot;1&quot;&gt;&#10;          &lt;mxGeometry x=&quot;501&quot; y=&quot;940&quot; width=&quot;100&quot; height=&quot;20&quot; as=&quot;geometry&quot; /&gt;&#10;        &lt;/mxCell&gt;&#10;        &lt;mxCell id=&quot;35&quot; value=&quot;&amp;lt;font style=&amp;quot;font-size: 10px;&amp;quot;&amp;gt;Global Secrets&amp;lt;/font&amp;gt;&quot; style=&quot;rounded=1;whiteSpace=wrap;html=1;fillColor=#6241C5;strokeColor=#000000;fontColor=#FFFFFF;fontFamily=TradeGothic LT Bold;&quot; vertex=&quot;1&quot; parent=&quot;1&quot;&gt;&#10;          &lt;mxGeometry x=&quot;511&quot; y=&quot;1000&quot; width=&quot;80&quot; height=&quot;25&quot; as=&quot;geometry&quot; /&gt;&#10;        &lt;/mxCell&gt;&#10;        &lt;mxCell id=&quot;36&quot; value=&quot;&amp;lt;font style=&amp;quot;font-size: 10px;&amp;quot;&amp;gt;Attestation Data&amp;lt;/font&amp;gt;&quot; style=&quot;rounded=1;whiteSpace=wrap;html=1;fillColor=#6241C5;strokeColor=#000000;fontColor=#FFFFFF;fontFamily=TradeGothic LT Bold;&quot; vertex=&quot;1&quot; parent=&quot;1&quot;&gt;&#10;          &lt;mxGeometry x=&quot;511&quot; y=&quot;975&quot; width=&quot;80&quot; height=&quot;25&quot; as=&quot;geometry&quot; /&gt;&#10;        &lt;/mxCell&gt;&#10;        &lt;mxCell id=&quot;37&quot; value=&quot;&amp;lt;font style=&amp;quot;font-size: 10px;&amp;quot;&amp;gt;Performed once per design&amp;lt;/font&amp;gt;&quot; style=&quot;text;html=1;strokeColor=none;fillColor=none;align=center;verticalAlign=middle;whiteSpace=wrap;rounded=0;fontFamily=TradeGothic LT Bold;&quot; vertex=&quot;1&quot; parent=&quot;1&quot;&gt;&#10;          &lt;mxGeometry x=&quot;197.5&quot; y=&quot;965&quot; width=&quot;99&quot; height=&quot;20&quot; as=&quot;geometry&quot; /&gt;&#10;        &lt;/mxCell&gt;&#10;        &lt;mxCell id=&quot;38&quot; value=&quot;&amp;lt;font style=&amp;quot;font-size: 10px;&amp;quot;&amp;gt;Global Secrets&amp;lt;/font&amp;gt;&quot; style=&quot;rounded=1;whiteSpace=wrap;html=1;fillColor=#6241C5;strokeColor=#000000;fontColor=#FFFFFF;fontFamily=TradeGothic LT Bold;&quot; vertex=&quot;1&quot; parent=&quot;1&quot;&gt;&#10;          &lt;mxGeometry x=&quot;406&quot; y=&quot;1000&quot; width=&quot;80&quot; height=&quot;25&quot; as=&quot;geometry&quot; /&gt;&#10;        &lt;/mxCell&gt;&#10;        &lt;mxCell id=&quot;39&quot; value=&quot;&amp;lt;font style=&amp;quot;font-size: 10px;&amp;quot;&amp;gt;Performed once per AP&amp;lt;/font&amp;gt;&quot; style=&quot;text;html=1;strokeColor=none;fillColor=none;align=center;verticalAlign=middle;whiteSpace=wrap;rounded=0;fontFamily=TradeGothic LT Bold;&quot; vertex=&quot;1&quot; parent=&quot;1&quot;&gt;&#10;          &lt;mxGeometry x=&quot;396&quot; y=&quot;915&quot; width=&quot;105&quot; height=&quot;20&quot; as=&quot;geometry&quot; /&gt;&#10;        &lt;/mxCell&gt;&#10;        &lt;mxCell id=&quot;40&quot; value=&quot;&amp;lt;font style=&amp;quot;font-size: 10px;&amp;quot;&amp;gt;Attestation PIN&amp;lt;/font&amp;gt;&quot; style=&quot;rounded=1;whiteSpace=wrap;html=1;fillColor=#7DEA49;strokeColor=#000000;fontFamily=TradeGothic LT Bold;&quot; vertex=&quot;1&quot; parent=&quot;1&quot;&gt;&#10;          &lt;mxGeometry x=&quot;406&quot; y=&quot;950&quot; width=&quot;80&quot; height=&quot;25&quot; as=&quot;geometry&quot; /&gt;&#10;        &lt;/mxCell&gt;&#10;        &lt;mxCell id=&quot;41&quot; value=&quot;&amp;lt;font style=&amp;quot;font-size: 10px;&amp;quot;&amp;gt;Performed multiple times&amp;lt;/font&amp;gt;&quot; style=&quot;text;html=1;strokeColor=none;fillColor=none;align=center;verticalAlign=middle;whiteSpace=wrap;rounded=0;fontFamily=TradeGothic LT Bold;&quot; vertex=&quot;1&quot; parent=&quot;1&quot;&gt;&#10;          &lt;mxGeometry x=&quot;296&quot; y=&quot;965&quot; width=&quot;99&quot; height=&quot;20&quot; as=&quot;geometry&quot; /&gt;&#10;        &lt;/mxCell&gt;&#10;      &lt;/root&gt;&#10;    &lt;/mxGraphModel&gt;&#10;  &lt;/diagram&gt;&#10;&lt;/mxfile&gt;&#10;"><defs/><g><rect x="100" y="75" width="99" height="210" fill="none" stroke="rgb(0, 0, 0)" stroke-dasharray="3 3" pointer-events="all"/><rect x="199" y="27" width="105" height="258" fill="none" stroke="rgb(0, 0, 0)" stroke-dasharray="3 3" pointer-events="all"/><rect x="0" y="75" width="100" height="210" fill="none" stroke="rgb(0, 0, 0)" stroke-dasharray="3 3" pointer-events="all"/><rect x="304" y="53" width="100" height="232" fill="none" stroke="rgb(0, 0, 0)" stroke-dasharray="3 3" pointer-events="all"/><path d="M 354 205 L 354 225 L 354 205 L 354 218.63" fill="none" stroke="rgb(0, 0, 0)" stroke-miterlimit="10" pointer-events="stroke"/><path d="M 354 223.88 L 350.5 216.88 L 354 218.63 L 357.5 216.88 Z" fill="rgb(0, 0, 0)" stroke="rgb(0, 0, 0)" stroke-miterlimit="10" pointer-events="all"/><rect x="314" y="155" width="80" height="50" fill="#f0f1f2" stroke="#36393d" pointer-events="all"/><g transform="translate(-0.5 -0.5)"><switch><foreignObject pointer-events="none" width="100%" height="100%" requiredFeatures="http://www.w3.org/TR/SVG11/feature#Extensibility" style="overflow: visible; text-align: left;"><div xmlns="http://www.w3.org/1999/xhtml" style="display: flex; align-items: unsafe center; justify-content: unsafe center; width: 78px; height: 1px; padding-top: 180px; margin-left: 315px;"><div data-drawio-colors="color: rgb(0, 0, 0); " style="box-sizing: border-box; font-size: 0px; text-align: center;"><div style="display: inline-block; font-size: 12px; font-family: &quot;TradeGothic LT Bold&quot;; color: rgb(0, 0, 0); line-height: 1.2; pointer-events: all; white-space: normal; overflow-wrap: normal;">Build Component</div></div></div></foreignObject><text x="354" y="184" fill="rgb(0, 0, 0)" font-family="TradeGothic LT Bold" font-size="12px" text-anchor="middle">Build Compone...</text></switch></g><path d="M 354 135 L 354 148.63" fill="none" stroke="rgb(0, 0, 0)" stroke-miterlimit="10" pointer-events="stroke"/><path d="M 354 153.88 L 350.5 146.88 L 354 148.63 L 357.5 146.88 Z" fill="rgb(0, 0, 0)" stroke="rgb(0, 0, 0)" stroke-miterlimit="10" pointer-events="all"/><rect x="314" y="225" width="80" height="50" rx="7.5" ry="7.5" fill="#6241c5" stroke="#000000" pointer-events="all"/><g transform="translate(-0.5 -0.5)"><switch><foreignObject pointer-events="none" width="100%" height="100%" requiredFeatures="http://www.w3.org/TR/SVG11/feature#Extensibility" style="overflow: visible; text-align: left;"><div xmlns="http://www.w3.org/1999/xhtml" style="display: flex; align-items: unsafe center; justify-content: unsafe center; width: 78px; height: 1px; padding-top: 250px; margin-left: 315px;"><div data-drawio-colors="color: #FFFFFF; " style="box-sizing: border-box; font-size: 0px; text-align: center;"><div style="display: inline-block; font-size: 12px; font-family: &quot;TradeGothic LT Bold&quot;; color: rgb(255, 255, 255); line-height: 1.2; pointer-events: all; white-space: normal; overflow-wrap: normal;">Component Firmware</div></div></div></foreignObject><text x="354" y="254" fill="#FFFFFF" font-family="TradeGothic LT Bold" font-size="12px" text-anchor="middle">Component Fir...</text></switch></g><path d="M 50 205 L 50 225 L 50 205 L 50 218.63" fill="none" stroke="rgb(0, 0, 0)" stroke-miterlimit="10" pointer-events="stroke"/><path d="M 50 223.88 L 46.5 216.88 L 50 218.63 L 53.5 216.88 Z" fill="rgb(0, 0, 0)" stroke="rgb(0, 0, 0)" stroke-miterlimit="10" pointer-events="all"/><path d="M 90 180 L 103.63 180" fill="none" stroke="rgb(0, 0, 0)" stroke-miterlimit="10" pointer-events="stroke"/><path d="M 108.88 180 L 101.88 183.5 L 103.63 180 L 101.88 176.5 Z" fill="rgb(0, 0, 0)" stroke="rgb(0, 0, 0)" stroke-miterlimit="10" pointer-events="all"/><rect x="10" y="155" width="80" height="50" fill="#f0f1f2" stroke="#36393d" pointer-events="all"/><g transform="translate(-0.5 -0.5)"><switch><foreignObject pointer-events="none" width="100%" height="100%" requiredFeatures="http://www.w3.org/TR/SVG11/feature#Extensibility" style="overflow: visible; text-align: left;"><div xmlns="http://www.w3.org/1999/xhtml" style="display: flex; align-items: unsafe center; justify-content: unsafe center; width: 78px; height: 1px; padding-top: 180px; margin-left: 11px;"><div data-drawio-colors="color: rgb(0, 0, 0); " style="box-sizing: border-box; font-size: 0px; text-align: center;"><div style="display: inline-block; font-size: 12px; font-family: &quot;TradeGothic LT Bold&quot;; color: rgb(0, 0, 0); line-height: 1.2; pointer-events: all; white-space: normal; overflow-wrap: normal;">Build Environment</div></div></div></foreignObject><text x="50" y="184" fill="rgb(0, 0, 0)" font-family="TradeGothic LT Bold" font-size="12px" text-anchor="middle">Build Environ...</text></switch></g><path d="M 50 135 L 50 155 L 50 135 L 50 148.63" fill="none" stroke="rgb(0, 0, 0)" stroke-miterlimit="10" pointer-events="stroke"/><path d="M 50 153.88 L 46.5 146.88 L 50 148.63 L 53.5 146.88 Z" fill="rgb(0, 0, 0)" stroke="rgb(0, 0, 0)" stroke-miterlimit="10" pointer-events="all"/><rect x="10" y="85" width="80" height="50" rx="7.5" ry="7.5" fill="#fff601" stroke="#36393d" pointer-events="all"/><g transform="translate(-0.5 -0.5)"><switch><foreignObject pointer-events="none" width="100%" height="100%" requiredFeatures="http://www.w3.org/TR/SVG11/feature#Extensibility" style="overflow: visible; text-align: left;"><div xmlns="http://www.w3.org/1999/xhtml" style="display: flex; align-items: unsafe center; justify-content: unsafe center; width: 78px; height: 1px; padding-top: 110px; margin-left: 11px;"><div data-drawio-colors="color: rgb(0, 0, 0); " style="box-sizing: border-box; font-size: 0px; text-align: center;"><div style="display: inline-block; font-size: 12px; font-family: &quot;TradeGothic LT Bold&quot;; color: rgb(0, 0, 0); line-height: 1.2; pointer-events: all; white-space: normal; overflow-wrap: normal;">Shell.nix</div></div></div></foreignObject><text x="50" y="114" fill="rgb(0, 0, 0)" font-family="TradeGothic LT Bold" font-size="12px" text-anchor="middle">Shell.nix</text></switch></g><rect x="10" y="225" width="80" height="50" rx="7.5" ry="7.5" fill="#fff601" stroke="#36393d" pointer-events="all"/><g transform="translate(-0.5 -0.5)"><switch><foreignObject pointer-events="none" width="100%" height="100%" requiredFeatures="http://www.w3.org/TR/SVG11/feature#Extensibility" style="overflow: visible; text-align: left;"><div xmlns="http://www.w3.org/1999/xhtml" style="display: flex; align-items: unsafe center; justify-content: unsafe center; width: 78px; height: 1px; padding-top: 250px; margin-left: 11px;"><div data-drawio-colors="color: rgb(0, 0, 0); " style="box-sizing: border-box; font-size: 0px; text-align: center;"><div style="display: inline-block; font-size: 12px; font-family: &quot;TradeGothic LT Bold&quot;; color: rgb(0, 0, 0); line-height: 1.2; pointer-events: all; white-space: normal; overflow-wrap: normal;">Nix Environment</div></div></div></foreignObject><text x="50" y="254" fill="rgb(0, 0, 0)" font-family="TradeGothic LT Bold" font-size="12px" text-anchor="middle">Nix Environme...</text></switch></g><path d="M 249 205 L 249 225 L 249 205 L 249 218.63" fill="none" stroke="rgb(0, 0, 0)" stroke-miterlimit="10" pointer-events="stroke"/><path d="M 249 223.88 L 245.5 216.88 L 249 218.63 L 252.5 216.88 Z" fill="rgb(0, 0, 0)" stroke="rgb(0, 0, 0)" stroke-miterlimit="10" pointer-events="all"/><rect x="209" y="155" width="80" height="50" fill="#f0f1f2" stroke="#36393d" pointer-events="all"/><g transform="translate(-0.5 -0.5)"><switch><foreignObject pointer-events="none" width="100%" height="100%" requiredFeatures="http://www.w3.org/TR/SVG11/feature#Extensibility" style="overflow: visible; text-align: left;"><div xmlns="http://www.w3.org/1999/xhtml" style="display: flex; align-items: unsafe center; justify-content: unsafe center; width: 78px; height: 1px; padding-top: 180px; margin-left: 210px;"><div data-drawio-colors="color: rgb(0, 0, 0); " style="box-sizing: border-box; font-size: 0px; text-align: center;"><div style="display: inline-block; font-size: 12px; font-family: &quot;TradeGothic LT Bold&quot;; color: rgb(0, 0, 0); line-height: 1.2; pointer-events: all; white-space: normal; overflow-wrap: normal;">Build AP</div></div></div></foreignObject><text x="249" y="184" fill="rgb(0, 0, 0)" font-family="TradeGothic LT Bold" font-size="12px" text-anchor="middle">Build AP</text></switch></g><rect x="209" y="225" width="80" height="50" rx="7.5" ry="7.5" fill="#6241c5" stroke="#000000" pointer-events="all"/><g transform="translate(-0.5 -0.5)"><switch><foreignObject pointer-events="none" width="100%" height="100%" requiredFeatures="http://www.w3.org/TR/SVG11/feature#Extensibility" style="overflow: visible; text-align: left;"><div xmlns="http://www.w3.org/1999/xhtml" style="display: flex; align-items: unsafe center; justify-content: unsafe center; width: 78px; height: 1px; padding-top: 250px; margin-left: 210px;"><div data-drawio-colors="color: #FFFFFF; " style="box-sizing: border-box; font-size: 0px; text-align: center;"><div style="display: inline-block; font-size: 12px; font-family: &quot;TradeGothic LT Bold&quot;; color: rgb(255, 255, 255); line-height: 1.2; pointer-events: all; white-space: normal; overflow-wrap: normal;">AP Firmware</div></div></div></foreignObject><text x="249" y="254" fill="#FFFFFF" font-family="TradeGothic LT Bold" font-size="12px" text-anchor="middle">AP Firmware</text></switch></g><rect x="314" y="110" width="80" height="25" rx="3.75" ry="3.75" fill="#fff601" stroke="#36393d" pointer-events="all"/><g transform="translate(-0.5 -0.5)"><switch><foreignObject pointer-events="none" width="100%" height="100%" requiredFeatures="http://www.w3.org/TR/SVG11/feature#Extensibility" style="overflow: visible; text-align: left;"><div xmlns="http://www.w3.org/1999/xhtml" style="display: flex; align-items: unsafe center; justify-content: unsafe center; width: 78px; height: 1px; padding-top: 123px; margin-left: 315px;"><div data-drawio-colors="color: rgb(0, 0, 0); " style="box-sizing: border-box; font-size: 0px; text-align: center;"><div style="display: inline-block; font-size: 12px; font-family: &quot;TradeGothic LT Bold&quot;; color: rgb(0, 0, 0); line-height: 1.2; pointer-events: all; white-space: normal; overflow-wrap: normal;"><font style="font-size: 10px;">Component ID</font></div></div></div></foreignObject><text x="354" y="126" fill="rgb(0, 0, 0)" font-family="TradeGothic LT Bold" font-size="12px" text-anchor="middle">Component ID</text></switch></g><path d="M 249 135 L 249 155 L 249 135 L 249 148.63" fill="none" stroke="rgb(0, 0, 0)" stroke-miterlimit="10" pointer-events="stroke"/><path d="M 249 153.88 L 245.5 146.88 L 249 148.63 L 252.5 146.88 Z" fill="rgb(0, 0, 0)" stroke="rgb(0, 0, 0)" stroke-miterlimit="10" pointer-events="all"/><rect x="209" y="110" width="80" height="25" rx="3.75" ry="3.75" fill="#fff601" stroke="#36393d" pointer-events="all"/><g transform="translate(-0.5 -0.5)"><switch><foreignObject pointer-events="none" width="100%" height="100%" requiredFeatures="http://www.w3.org/TR/SVG11/feature#Extensibility" style="overflow: visible; text-align: left;"><div xmlns="http://www.w3.org/1999/xhtml" style="display: flex; align-items: unsafe center; justify-content: unsafe center; width: 78px; height: 1px; padding-top: 123px; margin-left: 210px;"><div data-drawio-colors="color: rgb(0, 0, 0); " style="box-sizing: border-box; font-size: 0px; text-align: center;"><div style="display: inline-block; font-size: 12px; font-family: &quot;TradeGothic LT Bold&quot;; color: rgb(0, 0, 0); line-height: 1.2; pointer-events: all; white-space: normal; overflow-wrap: normal;"><font style="font-size: 10px;">Component IDs</font></div></div></div></foreignObject><text x="249" y="126" fill="rgb(0, 0, 0)" font-family="TradeGothic LT Bold" font-size="12px" text-anchor="middle">Component IDs</text></switch></g><rect x="209" y="60" width="80" height="25" rx="3.75" ry="3.75" fill="#7dea49" stroke="#000000" pointer-events="all"/><g transform="translate(-0.5 -0.5)"><switch><foreignObject pointer-events="none" width="100%" height="100%" requiredFeatures="http://www.w3.org/TR/SVG11/feature#Extensibility" style="overflow: visible; text-align: left;"><div xmlns="http://www.w3.org/1999/xhtml" style="display: flex; align-items: unsafe center; justify-content: unsafe center; width: 78px; height: 1px; padding-top: 73px; margin-left: 210px;"><div data-drawio-colors="color: rgb(0, 0, 0); " style="box-sizing: border-box; font-size: 0px; text-align: center;"><div style="display: inline-block; font-size: 12px; font-family: &quot;TradeGothic LT Bold&quot;; color: rgb(0, 0, 0); line-height: 1.2; pointer-events: all; white-space: normal; overflow-wrap: normal;"><font style="font-size: 10px;">Replace Token</font></div></div></div></foreignObject><text x="249" y="76" fill="rgb(0, 0, 0)" font-family="TradeGothic LT Bold" font-size="12px" text-anchor="middle">Replace Token</text></switch></g><rect x="10" y="295" width="50" height="20" rx="3" ry="3" fill="#6241c5" stroke="#000000" pointer-events="all"/><rect x="75" y="290" width="170" height="30" fill="none" stroke="none" pointer-events="all"/><g transform="translate(-0.5 -0.5)"><switch><foreignObject pointer-events="none" width="100%" height="100%" requiredFeatures="http://www.w3.org/TR/SVG11/feature#Extensibility" style="overflow: visible; text-align: left;"><div xmlns="http://www.w3.org/1999/xhtml" style="display: flex; align-items: unsafe center; justify-content: unsafe flex-start; width: 168px; height: 1px; padding-top: 305px; margin-left: 77px;"><div data-drawio-colors="color: rgb(0, 0, 0); " style="box-sizing: border-box; font-size: 0px; text-align: left;"><div style="display: inline-block; font-size: 12px; font-family: &quot;TradeGothic LT Bold&quot;; color: rgb(0, 0, 0); line-height: 1.2; pointer-events: all; white-space: normal; overflow-wrap: normal;">Attacker does not have access</div></div></div></foreignObject><text x="77" y="309" fill="rgb(0, 0, 0)" font-family="TradeGothic LT Bold" font-size="12px">Attacker does not have access</text></switch></g><rect x="10" y="345" width="50" height="20" rx="3" ry="3" fill="#fff601" stroke="#000000" pointer-events="all"/><rect x="75" y="340" width="170" height="30" fill="none" stroke="none" pointer-events="all"/><g transform="translate(-0.5 -0.5)"><switch><foreignObject pointer-events="none" width="100%" height="100%" requiredFeatures="http://www.w3.org/TR/SVG11/feature#Extensibility" style="overflow: visible; text-align: left;"><div xmlns="http://www.w3.org/1999/xhtml" style="display: flex; align-items: unsafe center; justify-content: unsafe flex-start; width: 168px; height: 1px; padding-top: 355px; margin-left: 77px;"><div data-drawio-colors="color: rgb(0, 0, 0); " style="box-sizing: border-box; font-size: 0px; text-align: left;"><div style="display: inline-block; font-size: 12px; font-family: &quot;TradeGothic LT Bold&quot;; color: rgb(0, 0, 0); line-height: 1.2; pointer-events: all; white-space: normal; overflow-wrap: normal;">Attacker always has access</div></div></div></foreignObject><text x="77" y="359" fill="rgb(0, 0, 0)" font-family="TradeGothic LT Bold" font-size="12px">Attacker always has access</text></switch></g><rect x="10" y="370" width="50" height="20" rx="3" ry="3" fill="#f5f5f5" stroke="#000000" pointer-events="all"/><rect x="75" y="365" width="190" height="30" fill="none" stroke="none" pointer-events="all"/><g transform="translate(-0.5 -0.5)"><switch><foreignObject pointer-events="none" width="100%" height="100%" requiredFeatures="http://www.w3.org/TR/SVG11/feature#Extensibility" style="overflow: visible; text-align: left;"><div xmlns="http://www.w3.org/1999/xhtml" style="display: flex; align-items: unsafe center; justify-content: unsafe flex-start; width: 188px; height: 1px; padding-top: 380px; margin-left: 77px;"><div data-drawio-colors="color: rgb(0, 0, 0); " style="box-sizing: border-box; font-size: 0px; text-align: left;"><div style="display: inline-block; font-size: 12px; font-family: &quot;TradeGothic LT Bold&quot;; color: rgb(0, 0, 0); line-height: 1.2; pointer-events: all; white-space: normal; overflow-wrap: normal;">Utility tool, required by each team</div></div></div></foreignObject><text x="77" y="384" fill="rgb(0, 0, 0)" font-family="TradeGothic LT Bold" font-size="12px">Utility tool, required by each...</text></switch></g><rect x="10" y="320" width="50" height="20" rx="3" ry="3" fill="#7dea49" stroke="#000000" pointer-events="all"/><rect x="75" y="315" width="255" height="30" fill="none" stroke="none" pointer-events="all"/><g transform="translate(-0.5 -0.5)"><switch><foreignObject pointer-events="none" width="100%" height="100%" requiredFeatures="http://www.w3.org/TR/SVG11/feature#Extensibility" style="overflow: visible; text-align: left;"><div xmlns="http://www.w3.org/1999/xhtml" style="display: flex; align-items: unsafe center; justify-content: unsafe flex-start; width: 253px; height: 1px; padding-top: 330px; margin-left: 77px;"><div data-drawio-colors="color: rgb(0, 0, 0); " style="box-sizing: border-box; font-size: 0px; text-align: left;"><div style="display: inline-block; font-size: 12px; font-family: &quot;TradeGothic LT Bold&quot;; color: rgb(0, 0, 0); line-height: 1.2; pointer-events: all; white-space: normal; overflow-wrap: normal;">Attacker has indirect access in some scenarios</div></div></div></foreignObject><text x="77" y="334" fill="rgb(0, 0, 0)" font-family="TradeGothic LT Bold" font-size="12px">Attacker has indirect access in some scena...</text></switch></g><path d="M 150 205 L 150 225 L 150 205 L 150 218.63" fill="none" stroke="rgb(0, 0, 0)" stroke-miterlimit="10" pointer-events="stroke"/><path d="M 150 223.88 L 146.5 216.88 L 150 218.63 L 153.5 216.88 Z" fill="rgb(0, 0, 0)" stroke="rgb(0, 0, 0)" stroke-miterlimit="10" pointer-events="all"/><rect x="110" y="155" width="80" height="50" fill="#f0f1f2" stroke="#36393d" pointer-events="all"/><g transform="translate(-0.5 -0.5)"><switch><foreignObject pointer-events="none" width="100%" height="100%" requiredFeatures="http://www.w3.org/TR/SVG11/feature#Extensibility" style="overflow: visible; text-align: left;"><div xmlns="http://www.w3.org/1999/xhtml" style="display: flex; align-items: unsafe center; justify-content: unsafe center; width: 78px; height: 1px; padding-top: 180px; margin-left: 111px;"><div data-drawio-colors="color: rgb(0, 0, 0); " style="box-sizing: border-box; font-size: 0px; text-align: center;"><div style="display: inline-block; font-size: 12px; font-family: &quot;TradeGothic LT Bold&quot;; color: rgb(0, 0, 0); line-height: 1.2; pointer-events: all; white-space: normal; overflow-wrap: normal;">Build Deployment</div></div></div></foreignObject><text x="150" y="184" fill="rgb(0, 0, 0)" font-family="TradeGothic LT Bold" font-size="12px" text-anchor="middle">Build Deploym...</text></switch></g><rect x="110" y="225" width="80" height="50" rx="7.5" ry="7.5" fill="#6241c5" stroke="#000000" pointer-events="all"/><g transform="translate(-0.5 -0.5)"><switch><foreignObject pointer-events="none" width="100%" height="100%" requiredFeatures="http://www.w3.org/TR/SVG11/feature#Extensibility" style="overflow: visible; text-align: left;"><div xmlns="http://www.w3.org/1999/xhtml" style="display: flex; align-items: unsafe center; justify-content: unsafe center; width: 78px; height: 1px; padding-top: 250px; margin-left: 111px;"><div data-drawio-colors="color: #FFFFFF; " style="box-sizing: border-box; font-size: 0px; text-align: center;"><div style="display: inline-block; font-size: 12px; font-family: &quot;TradeGothic LT Bold&quot;; color: rgb(255, 255, 255); line-height: 1.2; pointer-events: all; white-space: normal; overflow-wrap: normal;">Global Secrets</div></div></div></foreignObject><text x="150" y="254" fill="#FFFFFF" font-family="TradeGothic LT Bold" font-size="12px" text-anchor="middle">Global Secrets</text></switch></g><rect x="304" y="25" width="100" height="20" fill="none" stroke="none" pointer-events="all"/><g transform="translate(-0.5 -0.5)"><switch><foreignObject pointer-events="none" width="100%" height="100%" requiredFeatures="http://www.w3.org/TR/SVG11/feature#Extensibility" style="overflow: visible; text-align: left;"><div xmlns="http://www.w3.org/1999/xhtml" style="display: flex; align-items: unsafe center; justify-content: unsafe center; width: 98px; height: 1px; padding-top: 35px; margin-left: 305px;"><div data-drawio-colors="color: rgb(0, 0, 0); " style="box-sizing: border-box; font-size: 0px; text-align: center;"><div style="display: inline-block; font-size: 12px; font-family: &quot;TradeGothic LT Bold&quot;; color: rgb(0, 0, 0); line-height: 1.2; pointer-events: all; white-space: normal; overflow-wrap: normal;"><font style="font-size: 10px;">Performed once per component</font></div></div></div></foreignObject><text x="354" y="39" fill="rgb(0, 0, 0)" font-family="TradeGothic LT Bold" font-size="12px" text-anchor="middle">Performed once p...</text></switch></g><rect x="314" y="85" width="80" height="25" rx="3.75" ry="3.75" fill="#6241c5" stroke="#000000" pointer-events="all"/><g transform="translate(-0.5 -0.5)"><switch><foreignObject pointer-events="none" width="100%" height="100%" requiredFeatures="http://www.w3.org/TR/SVG11/feature#Extensibility" style="overflow: visible; text-align: left;"><div xmlns="http://www.w3.org/1999/xhtml" style="display: flex; align-items: unsafe center; justify-content: unsafe center; width: 78px; height: 1px; padding-top: 98px; margin-left: 315px;"><div data-drawio-colors="color: #FFFFFF; " style="box-sizing: border-box; font-size: 0px; text-align: center;"><div style="display: inline-block; font-size: 12px; font-family: &quot;TradeGothic LT Bold&quot;; color: rgb(255, 255, 255); line-height: 1.2; pointer-events: all; white-space: normal; overflow-wrap: normal;"><font style="font-size: 10px;">Global Secrets</font></div></div></div></foreignObject><text x="354" y="101" fill="#FFFFFF" font-family="TradeGothic LT Bold" font-size="12px" text-anchor="middle">Global Secrets</text></switch></g><rect x="314" y="60" width="80" height="25" rx="3.75" ry="3.75" fill="#6241c5" stroke="#000000" pointer-events="all"/><g transform="translate(-0.5 -0.5)"><switch><foreignObject pointer-events="none" width="100%" height="100%" requiredFeatures="http://www.w3.org/TR/SVG11/feature#Extensibility" style="overflow: visible; text-align: left;"><div xmlns="http://www.w3.org/1999/xhtml" style="display: flex; align-items: unsafe center; justify-content: unsafe center; width: 78px; height: 1px; padding-top: 73px; margin-left: 315px;"><div data-drawio-colors="color: #FFFFFF; " style="box-sizing: border-box; font-size: 0px; text-align: center;"><div style="display: inline-block; font-size: 12px; font-family: &quot;TradeGothic LT Bold&quot;; color: rgb(255, 255, 255); line-height: 1.2; pointer-events: all; white-space: normal; overflow-wrap: normal;"><font style="font-size: 10px;">Attestation Data</font></div></div></div></foreignObject><text x="354" y="76" fill="#FFFFFF" font-family="TradeGothic LT Bold" font-size="12px" text-anchor="middle">Attestation D...</text></switch></g><rect x="0.5" y="50" width="99" height="20" fill="none" stroke="none" pointer-events="all"/><g transform="translate(-0.5 -0.5)"><switch><foreignObject pointer-events="none" width="100%" height="100%" requiredFeatures="http://www.w3.org/TR/SVG11/feature#Extensibility" style="overflow: visible; text-align: left;"><div xmlns="http://www.w3.org/1999/xhtml" style="display: flex; align-items: unsafe center; justify-content: unsafe center; width: 97px; height: 1px; padding-top: 60px; margin-left: 2px;"><div data-drawio-colors="color: rgb(0, 0, 0); " style="box-sizing: border-box; font-size: 0px; text-align: center;"><div style="display: inline-block; font-size: 12px; font-family: &quot;TradeGothic LT Bold&quot;; color: rgb(0, 0, 0); line-height: 1.2; pointer-events: all; white-space: normal; overflow-wrap: normal;"><font style="font-size: 10px;">Performed once per design</font></div></div></div></foreignObject><text x="50" y="64" fill="rgb(0, 0, 0)" font-family="TradeGothic LT Bold" font-size="12px" text-anchor="middle">Performed once p...</text></switch></g><rect x="209" y="85" width="80" height="25" rx="3.75" ry="3.75" fill="#6241c5" stroke="#000000" pointer-events="all"/><g transform="translate(-0.5 -0.5)"><switch><foreignObject pointer-events="none" width="100%" height="100%" requiredFeatures="http://www.w3.org/TR/SVG11/feature#Extensibility" style="overflow: visible; text-align: left;"><div xmlns="http://www.w3.org/1999/xhtml" style="display: flex; align-items: unsafe center; justify-content: unsafe center; width: 78px; height: 1px; padding-top: 98px; margin-left: 210px;"><div data-drawio-colors="color: #FFFFFF; " style="box-sizing: border-box; font-size: 0px; text-align: center;"><div style="display: inline-block; font-size: 12px; font-family: &quot;TradeGothic LT Bold&quot;; color: rgb(255, 255, 255); line-height: 1.2; pointer-events: all; white-space: normal; overflow-wrap: normal;"><font style="font-size: 10px;">Global Secrets</font></div></div></div></foreignObject><text x="249" y="101" fill="#FFFFFF" font-family="TradeGothic LT Bold" font-size="12px" text-anchor="middle">Global Secrets</text></switch></g><rect x="199" y="0" width="105" height="20" fill="none" stroke="none" pointer-events="all"/><g transform="translate(-0.5 -0.5)"><switch><foreignObject pointer-events="none" width="100%" height="100%" requiredFeatures="http://www.w3.org/TR/SVG11/feature#Extensibility" style="overflow: visible; text-align: left;"><div xmlns="http://www.w3.org/1999/xhtml" style="display: flex; align-items: unsafe center; justify-content: unsafe center; width: 103px; height: 1px; padding-top: 10px; margin-left: 200px;"><div data-drawio-colors="color: rgb(0, 0, 0); " style="box-sizing: border-box; font-size: 0px; text-align: center;"><div style="display: inline-block; font-size: 12px; font-family: &quot;TradeGothic LT Bold&quot;; color: rgb(0, 0, 0); line-height: 1.2; pointer-events: all; white-space: normal; overflow-wrap: normal;"><font style="font-size: 10px;">Performed once per AP</font></div></div></div></foreignObject><text x="252" y="14" fill="rgb(0, 0, 0)" font-family="TradeGothic LT Bold" font-size="12px" text-anchor="middle">Performed once pe...</text></switch></g><rect x="209" y="35" width="80" height="25" rx="3.75" ry="3.75" fill="#7dea49" stroke="#000000" pointer-events="all"/><g transform="translate(-0.5 -0.5)"><switch><foreignObject pointer-events="none" width="100%" height="100%" requiredFeatures="http://www.w3.org/TR/SVG11/feature#Extensibility" style="overflow: visible; text-align: left;"><div xmlns="http://www.w3.org/1999/xhtml" style="display: flex; align-items: unsafe center; justify-content: unsafe center; width: 78px; height: 1px; padding-top: 48px; margin-left: 210px;"><div data-drawio-colors="color: rgb(0, 0, 0); " style="box-sizing: border-box; font-size: 0px; text-align: center;"><div style="display: inline-block; font-size: 12px; font-family: &quot;TradeGothic LT Bold&quot;; color: rgb(0, 0, 0); line-height: 1.2; pointer-events: all; white-space: normal; overflow-wrap: normal;"><font style="font-size: 10px;">Attestation PIN</font></div></div></div></foreignObject><text x="249" y="51" fill="rgb(0, 0, 0)" font-family="TradeGothic LT Bold" font-size="12px" text-anchor="middle">Attestation P...</text></switch></g><rect x="99" y="50" width="99" height="20" fill="none" stroke="none" pointer-events="all"/><g transform="translate(-0.5 -0.5)"><switch><foreignObject pointer-events="none" width="100%" height="100%" requiredFeatures="http://www.w3.org/TR/SVG11/feature#Extensibility" style="overflow: visible; text-align: left;"><div xmlns="http://www.w3.org/1999/xhtml" style="display: flex; align-items: unsafe center; justify-content: unsafe center; width: 97px; height: 1px; padding-top: 60px; margin-left: 100px;"><div data-drawio-colors="color: rgb(0, 0, 0); " style="box-sizing: border-box; font-size: 0px; text-align: center;"><div style="display: inline-block; font-size: 12px; font-family: &quot;TradeGothic LT Bold&quot;; color: rgb(0, 0, 0); line-height: 1.2; pointer-events: all; white-space: normal; overflow-wrap: normal;"><font style="font-size: 10px;">Performed multiple times</font></div></div></div></foreignObject><text x="149" y="64" fill="rgb(0, 0, 0)" font-family="TradeGothic LT Bold" font-size="12px" text-anchor="middle">Performed multip...</text></switch></g></g></svg>