<?xml version="1.0" encoding="UTF-8"?>
<!-- Do not edit this file with editors other than draw.io -->
<!DOCTYPE svg PUBLIC "-//W3C//DTD SVG 1.1//EN" "http://www.w3.org/Graphics/SVG/1.1/DTD/svg11.dtd">
<svg xmlns="http://www.w3.org/2000/svg" xmlns:xlink="http://www.w3.org/1999/xlink" version="1.1" width="472px" height="232px" viewBox="-0.5 -0.5 472 232" content="&lt;mxfile host=&quot;Electron&quot; modified=&quot;2024-01-26T17:36:50.242Z&quot; agent=&quot;Mozilla/5.0 (Macintosh; Intel Mac OS X 10_15_7) AppleWebKit/537.36 (KHTML, like Gecko) draw.io/23.0.2 Chrome/120.0.6099.109 Electron/28.1.0 Safari/537.36&quot; version=&quot;23.0.2&quot; etag=&quot;Rj7gHkJV7wP2o5F-S-qV&quot; type=&quot;device&quot; scale=&quot;1&quot; border=&quot;0&quot;&gt;&#10;  &lt;diagram name=&quot;Page-1&quot; id=&quot;vbRKfrxP2CR3zf1BLV7D&quot;&gt;&#10;    &lt;mxGraphModel dx=&quot;662&quot; dy=&quot;1012&quot; grid=&quot;1&quot; gridSize=&quot;10&quot; guides=&quot;1&quot; tooltips=&quot;1&quot; connect=&quot;1&quot; arrows=&quot;1&quot; fold=&quot;1&quot; page=&quot;1&quot; pageScale=&quot;1&quot; pageWidth=&quot;850&quot; pageHeight=&quot;1100&quot; math=&quot;0&quot; shadow=&quot;0&quot;&gt;&#10;      &lt;root&gt;&#10;        &lt;mxCell id=&quot;0&quot; /&gt;&#10;        &lt;mxCell id=&quot;1&quot; parent=&quot;0&quot; /&gt;&#10;        &lt;mxCell id=&quot;2&quot; value=&quot;&quot; style=&quot;rounded=0;whiteSpace=wrap;html=1;fontFamily=TradeGothic LT Bold;&quot; vertex=&quot;1&quot; parent=&quot;1&quot;&gt;&#10;          &lt;mxGeometry x=&quot;320&quot; y=&quot;150&quot; width=&quot;110&quot; height=&quot;230&quot; as=&quot;geometry&quot; /&gt;&#10;        &lt;/mxCell&gt;&#10;        &lt;mxCell id=&quot;3&quot; value=&quot;&quot; style=&quot;html=1;outlineConnect=0;whiteSpace=wrap;fillColor=#f5f5f5;shape=mxgraph.archimate3.tech;techType=facility;fontColor=#333333;strokeColor=#666666;fontFamily=TradeGothic LT Bold;&quot; vertex=&quot;1&quot; parent=&quot;1&quot;&gt;&#10;          &lt;mxGeometry x=&quot;320&quot; y=&quot;217.5&quot; width=&quot;110&quot; height=&quot;75&quot; as=&quot;geometry&quot; /&gt;&#10;        &lt;/mxCell&gt;&#10;        &lt;mxCell id=&quot;4&quot; value=&quot;&quot; style=&quot;rounded=0;whiteSpace=wrap;html=1;fontFamily=TradeGothic LT Bold;&quot; vertex=&quot;1&quot; parent=&quot;1&quot;&gt;&#10;          &lt;mxGeometry x=&quot;200&quot; y=&quot;150&quot; width=&quot;110&quot; height=&quot;230&quot; as=&quot;geometry&quot; /&gt;&#10;        &lt;/mxCell&gt;&#10;        &lt;mxCell id=&quot;5&quot; value=&quot;&quot; style=&quot;html=1;outlineConnect=0;whiteSpace=wrap;fillColor=#f5f5f5;shape=mxgraph.archimate3.tech;techType=facility;fontColor=#333333;strokeColor=#666666;fontFamily=TradeGothic LT Bold;&quot; vertex=&quot;1&quot; parent=&quot;1&quot;&gt;&#10;          &lt;mxGeometry x=&quot;200&quot; y=&quot;217.5&quot; width=&quot;110&quot; height=&quot;75&quot; as=&quot;geometry&quot; /&gt;&#10;        &lt;/mxCell&gt;&#10;        &lt;mxCell id=&quot;6&quot; value=&quot;&quot; style=&quot;rounded=0;whiteSpace=wrap;html=1;fontFamily=TradeGothic LT Bold;&quot; vertex=&quot;1&quot; parent=&quot;1&quot;&gt;&#10;          &lt;mxGeometry x=&quot;440&quot; y=&quot;150&quot; width=&quot;110&quot; height=&quot;230&quot; as=&quot;geometry&quot; /&gt;&#10;        &lt;/mxCell&gt;&#10;        &lt;mxCell id=&quot;7&quot; value=&quot;&quot; style=&quot;rounded=0;whiteSpace=wrap;html=1;fontFamily=TradeGothic LT Bold;&quot; vertex=&quot;1&quot; parent=&quot;1&quot;&gt;&#10;          &lt;mxGeometry x=&quot;560&quot; y=&quot;150&quot; width=&quot;110&quot; height=&quot;230&quot; as=&quot;geometry&quot; /&gt;&#10;        &lt;/mxCell&gt;&#10;        &lt;mxCell id=&quot;8&quot; value=&quot;Secure Component Production Facility&quot; style=&quot;text;html=1;strokeColor=none;fillColor=#6241C5;align=center;verticalAlign=middle;whiteSpace=wrap;rounded=0;fontFamily=TradeGothic LT Bold;fontColor=#F0F1F2;&quot; vertex=&quot;1&quot; parent=&quot;1&quot;&gt;&#10;          &lt;mxGeometry x=&quot;200&quot; y=&quot;150&quot; width=&quot;110&quot; height=&quot;30&quot; as=&quot;geometry&quot; /&gt;&#10;        &lt;/mxCell&gt;&#10;        &lt;mxCell id=&quot;9&quot; value=&quot;Medical Device&amp;amp;nbsp; Production Facility&quot; style=&quot;text;html=1;strokeColor=none;fillColor=#6241C5;align=center;verticalAlign=middle;whiteSpace=wrap;rounded=0;fontFamily=TradeGothic LT Bold;fontColor=#F0F1F2;&quot; vertex=&quot;1&quot; parent=&quot;1&quot;&gt;&#10;          &lt;mxGeometry x=&quot;320&quot; y=&quot;150&quot; width=&quot;110&quot; height=&quot;30&quot; as=&quot;geometry&quot; /&gt;&#10;        &lt;/mxCell&gt;&#10;        &lt;mxCell id=&quot;10&quot; value=&quot;Patients&quot; style=&quot;text;html=1;strokeColor=none;fillColor=#6241C5;align=center;verticalAlign=middle;whiteSpace=wrap;rounded=0;fontFamily=TradeGothic LT Bold;fontColor=#F0F1F2;&quot; vertex=&quot;1&quot; parent=&quot;1&quot;&gt;&#10;          &lt;mxGeometry x=&quot;440&quot; y=&quot;150&quot; width=&quot;110&quot; height=&quot;30&quot; as=&quot;geometry&quot; /&gt;&#10;        &lt;/mxCell&gt;&#10;        &lt;mxCell id=&quot;11&quot; value=&quot;Repair Facility&quot; style=&quot;text;html=1;strokeColor=none;fillColor=#6241C5;align=center;verticalAlign=middle;whiteSpace=wrap;rounded=0;fontFamily=TradeGothic LT Bold;fontColor=#F0F1F2;&quot; vertex=&quot;1&quot; parent=&quot;1&quot;&gt;&#10;          &lt;mxGeometry x=&quot;560&quot; y=&quot;150&quot; width=&quot;110&quot; height=&quot;30&quot; as=&quot;geometry&quot; /&gt;&#10;        &lt;/mxCell&gt;&#10;        &lt;mxCell id=&quot;12&quot; value=&quot;Access to global secrets&quot; style=&quot;text;html=1;strokeColor=none;fillColor=none;align=center;verticalAlign=middle;whiteSpace=wrap;rounded=0;fontFamily=TradeGothic LT Bold;&quot; vertex=&quot;1&quot; parent=&quot;1&quot;&gt;&#10;          &lt;mxGeometry x=&quot;210&quot; y=&quot;330&quot; width=&quot;90&quot; height=&quot;30&quot; as=&quot;geometry&quot; /&gt;&#10;        &lt;/mxCell&gt;&#10;        &lt;mxCell id=&quot;13&quot; value=&quot;Access to global secrets&quot; style=&quot;text;html=1;strokeColor=none;fillColor=none;align=center;verticalAlign=middle;whiteSpace=wrap;rounded=0;fontFamily=TradeGothic LT Bold;&quot; vertex=&quot;1&quot; parent=&quot;1&quot;&gt;&#10;          &lt;mxGeometry x=&quot;330&quot; y=&quot;330&quot; width=&quot;90&quot; height=&quot;30&quot; as=&quot;geometry&quot; /&gt;&#10;        &lt;/mxCell&gt;&#10;        &lt;mxCell id=&quot;14&quot; value=&quot;&quot; style=&quot;outlineConnect=0;dashed=0;verticalLabelPosition=bottom;verticalAlign=top;align=center;html=1;shape=mxgraph.aws3.sensor;fillColor=#000000;gradientColor=none;fontFamily=TradeGothic LT Bold;&quot; vertex=&quot;1&quot; parent=&quot;1&quot;&gt;&#10;          &lt;mxGeometry x=&quot;223.25&quot; y=&quot;235&quot; width=&quot;46.75&quot; height=&quot;50&quot; as=&quot;geometry&quot; /&gt;&#10;        &lt;/mxCell&gt;&#10;        &lt;mxCell id=&quot;15&quot; value=&quot;&quot; style=&quot;outlineConnect=0;dashed=0;verticalLabelPosition=bottom;verticalAlign=top;align=center;html=1;shape=mxgraph.aws3.medical_emergency;fillColor=#000000;gradientColor=none;fontFamily=TradeGothic LT Bold;&quot; vertex=&quot;1&quot; parent=&quot;1&quot;&gt;&#10;          &lt;mxGeometry x=&quot;340&quot; y=&quot;232.62&quot; width=&quot;54.75&quot; height=&quot;54.75&quot; as=&quot;geometry&quot; /&gt;&#10;        &lt;/mxCell&gt;&#10;        &lt;mxCell id=&quot;16&quot; value=&quot;&quot; style=&quot;rounded=0;whiteSpace=wrap;html=1;fillColor=#f5f5f5;dashed=1;strokeColor=#666666;opacity=40;fontColor=#333333;fontFamily=TradeGothic LT Bold;&quot; vertex=&quot;1&quot; parent=&quot;1&quot;&gt;&#10;          &lt;mxGeometry x=&quot;200&quot; y=&quot;330&quot; width=&quot;230&quot; height=&quot;30&quot; as=&quot;geometry&quot; /&gt;&#10;        &lt;/mxCell&gt;&#10;        &lt;mxCell id=&quot;17&quot; value=&quot;&quot; style=&quot;outlineConnect=0;dashed=0;verticalLabelPosition=bottom;verticalAlign=top;align=center;html=1;shape=mxgraph.aws3.medical_emergency;fillColor=#FF0000;strokeColor=#f50800;fontFamily=TradeGothic LT Bold;&quot; vertex=&quot;1&quot; parent=&quot;1&quot;&gt;&#10;          &lt;mxGeometry x=&quot;587.62&quot; y=&quot;227.62&quot; width=&quot;54.75&quot; height=&quot;54.75&quot; as=&quot;geometry&quot; /&gt;&#10;        &lt;/mxCell&gt;&#10;        &lt;mxCell id=&quot;18&quot; value=&quot;Certified repair Technician&quot; style=&quot;text;html=1;strokeColor=none;fillColor=none;align=center;verticalAlign=middle;whiteSpace=wrap;rounded=0;fontFamily=TradeGothic LT Bold;&quot; vertex=&quot;1&quot; parent=&quot;1&quot;&gt;&#10;          &lt;mxGeometry x=&quot;569.99&quot; y=&quot;330&quot; width=&quot;90&quot; height=&quot;30&quot; as=&quot;geometry&quot; /&gt;&#10;        &lt;/mxCell&gt;&#10;        &lt;mxCell id=&quot;19&quot; value=&quot;&quot; style=&quot;outlineConnect=0;dashed=0;verticalLabelPosition=bottom;verticalAlign=top;align=center;html=1;shape=mxgraph.aws3.medical_emergency;fillColor=#000000;gradientColor=none;fontFamily=TradeGothic LT Bold;&quot; vertex=&quot;1&quot; parent=&quot;1&quot;&gt;&#10;          &lt;mxGeometry x=&quot;450&quot; y=&quot;190&quot; width=&quot;40&quot; height=&quot;40&quot; as=&quot;geometry&quot; /&gt;&#10;        &lt;/mxCell&gt;&#10;        &lt;mxCell id=&quot;20&quot; value=&quot;&quot; style=&quot;outlineConnect=0;dashed=0;verticalLabelPosition=bottom;verticalAlign=top;align=center;html=1;shape=mxgraph.aws3.medical_emergency;fillColor=#000000;gradientColor=none;fontFamily=TradeGothic LT Bold;&quot; vertex=&quot;1&quot; parent=&quot;1&quot;&gt;&#10;          &lt;mxGeometry x=&quot;500&quot; y=&quot;235&quot; width=&quot;40&quot; height=&quot;40&quot; as=&quot;geometry&quot; /&gt;&#10;        &lt;/mxCell&gt;&#10;        &lt;mxCell id=&quot;21&quot; value=&quot;&quot; style=&quot;outlineConnect=0;dashed=0;verticalLabelPosition=bottom;verticalAlign=top;align=center;html=1;shape=mxgraph.aws3.medical_emergency;fillColor=#000000;gradientColor=none;fontFamily=TradeGothic LT Bold;&quot; vertex=&quot;1&quot; parent=&quot;1&quot;&gt;&#10;          &lt;mxGeometry x=&quot;450&quot; y=&quot;280&quot; width=&quot;40&quot; height=&quot;40&quot; as=&quot;geometry&quot; /&gt;&#10;        &lt;/mxCell&gt;&#10;        &lt;mxCell id=&quot;22&quot; value=&quot;Devices in operation&quot; style=&quot;text;html=1;strokeColor=none;fillColor=none;align=center;verticalAlign=middle;whiteSpace=wrap;rounded=0;fontFamily=TradeGothic LT Bold;&quot; vertex=&quot;1&quot; parent=&quot;1&quot;&gt;&#10;          &lt;mxGeometry x=&quot;440&quot; y=&quot;330&quot; width=&quot;110&quot; height=&quot;30&quot; as=&quot;geometry&quot; /&gt;&#10;        &lt;/mxCell&gt;&#10;      &lt;/root&gt;&#10;    &lt;/mxGraphModel&gt;&#10;  &lt;/diagram&gt;&#10;&lt;/mxfile&gt;&#10;"><defs/><g><rect x="120" y="0" width="110" height="230" fill="rgb(255, 255, 255)" stroke="rgb(0, 0, 0)" pointer-events="all"/><path d="M 120 77.5 L 130 67.5 L 230 67.5 L 230 132.5 L 220 142.5 L 120 142.5 Z M 120 77.5 L 220 77.5 L 220 142.5 M 230 67.5 L 220 77.5" fill="#f5f5f5" stroke="#666666" stroke-miterlimit="10" pointer-events="all"/><path d="M 200 97.5 L 200 82.5 L 201.95 82.5 L 201.95 93 L 206.3 90.75 L 206.3 93 L 210.65 90.75 L 210.65 93 L 215 90.75 L 215 97.5 Z" fill="none" stroke="#666666" stroke-miterlimit="10" pointer-events="all"/><rect x="0" y="0" width="110" height="230" fill="rgb(255, 255, 255)" stroke="rgb(0, 0, 0)" pointer-events="all"/><path d="M 0 77.5 L 10 67.5 L 110 67.5 L 110 132.5 L 100 142.5 L 0 142.5 Z M 0 77.5 L 100 77.5 L 100 142.5 M 110 67.5 L 100 77.5" fill="#f5f5f5" stroke="#666666" stroke-miterlimit="10" pointer-events="all"/><path d="M 80 97.5 L 80 82.5 L 81.95 82.5 L 81.95 93 L 86.3 90.75 L 86.3 93 L 90.65 90.75 L 90.65 93 L 95 90.75 L 95 97.5 Z" fill="none" stroke="#666666" stroke-miterlimit="10" pointer-events="all"/><rect x="240" y="0" width="110" height="230" fill="rgb(255, 255, 255)" stroke="rgb(0, 0, 0)" pointer-events="all"/><rect x="360" y="0" width="110" height="230" fill="rgb(255, 255, 255)" stroke="rgb(0, 0, 0)" pointer-events="all"/><rect x="0" y="0" width="110" height="30" fill="#6241c5" stroke="none" pointer-events="all"/><g transform="translate(-0.5 -0.5)"><switch><foreignObject pointer-events="none" width="100%" height="100%" requiredFeatures="http://www.w3.org/TR/SVG11/feature#Extensibility" style="overflow: visible; text-align: left;"><div xmlns="http://www.w3.org/1999/xhtml" style="display: flex; align-items: unsafe center; justify-content: unsafe center; width: 108px; height: 1px; padding-top: 15px; margin-left: 1px;"><div data-drawio-colors="color: #F0F1F2; " style="box-sizing: border-box; font-size: 0px; text-align: center;"><div style="display: inline-block; font-size: 12px; font-family: &quot;TradeGothic LT Bold&quot;; color: rgb(240, 241, 242); line-height: 1.2; pointer-events: all; white-space: normal; overflow-wrap: normal;">Secure Component Production Facility</div></div></div></foreignObject><text x="55" y="19" fill="#F0F1F2" font-family="TradeGothic LT Bold" font-size="12px" text-anchor="middle">Secure Component P...</text></switch></g><rect x="120" y="0" width="110" height="30" fill="#6241c5" stroke="none" pointer-events="all"/><g transform="translate(-0.5 -0.5)"><switch><foreignObject pointer-events="none" width="100%" height="100%" requiredFeatures="http://www.w3.org/TR/SVG11/feature#Extensibility" style="overflow: visible; text-align: left;"><div xmlns="http://www.w3.org/1999/xhtml" style="display: flex; align-items: unsafe center; justify-content: unsafe center; width: 108px; height: 1px; padding-top: 15px; margin-left: 121px;"><div data-drawio-colors="color: #F0F1F2; " style="box-sizing: border-box; font-size: 0px; text-align: center;"><div style="display: inline-block; font-size: 12px; font-family: &quot;TradeGothic LT Bold&quot;; color: rgb(240, 241, 242); line-height: 1.2; pointer-events: all; white-space: normal; overflow-wrap: normal;">Medical Device  Production Facility</div></div></div></foreignObject><text x="175" y="19" fill="#F0F1F2" font-family="TradeGothic LT Bold" font-size="12px" text-anchor="middle">Medical Device  Pr...</text></switch></g><rect x="240" y="0" width="110" height="30" fill="#6241c5" stroke="none" pointer-events="all"/><g transform="translate(-0.5 -0.5)"><switch><foreignObject pointer-events="none" width="100%" height="100%" requiredFeatures="http://www.w3.org/TR/SVG11/feature#Extensibility" style="overflow: visible; text-align: left;"><div xmlns="http://www.w3.org/1999/xhtml" style="display: flex; align-items: unsafe center; justify-content: unsafe center; width: 108px; height: 1px; padding-top: 15px; margin-left: 241px;"><div data-drawio-colors="color: #F0F1F2; " style="box-sizing: border-box; font-size: 0px; text-align: center;"><div style="display: inline-block; font-size: 12px; font-family: &quot;TradeGothic LT Bold&quot;; color: rgb(240, 241, 242); line-height: 1.2; pointer-events: all; white-space: normal; overflow-wrap: normal;">Patients</div></div></div></foreignObject><text x="295" y="19" fill="#F0F1F2" font-family="TradeGothic LT Bold" font-size="12px" text-anchor="middle">Patients</text></switch></g><rect x="360" y="0" width="110" height="30" fill="#6241c5" stroke="none" pointer-events="all"/><g transform="translate(-0.5 -0.5)"><switch><foreignObject pointer-events="none" width="100%" height="100%" requiredFeatures="http://www.w3.org/TR/SVG11/feature#Extensibility" style="overflow: visible; text-align: left;"><div xmlns="http://www.w3.org/1999/xhtml" style="display: flex; align-items: unsafe center; justify-content: unsafe center; width: 108px; height: 1px; padding-top: 15px; margin-left: 361px;"><div data-drawio-colors="color: #F0F1F2; " style="box-sizing: border-box; font-size: 0px; text-align: center;"><div style="display: inline-block; font-size: 12px; font-family: &quot;TradeGothic LT Bold&quot;; color: rgb(240, 241, 242); line-height: 1.2; pointer-events: all; white-space: normal; overflow-wrap: normal;">Repair Facility</div></div></div></foreignObject><text x="415" y="19" fill="#F0F1F2" font-family="TradeGothic LT Bold" font-size="12px" text-anchor="middle">Repair Facility</text></switch></g><rect x="10" y="180" width="90" height="30" fill="none" stroke="none" pointer-events="all"/><g transform="translate(-0.5 -0.5)"><switch><foreignObject pointer-events="none" width="100%" height="100%" requiredFeatures="http://www.w3.org/TR/SVG11/feature#Extensibility" style="overflow: visible; text-align: left;"><div xmlns="http://www.w3.org/1999/xhtml" style="display: flex; align-items: unsafe center; justify-content: unsafe center; width: 88px; height: 1px; padding-top: 195px; margin-left: 11px;"><div data-drawio-colors="color: rgb(0, 0, 0); " style="box-sizing: border-box; font-size: 0px; text-align: center;"><div style="display: inline-block; font-size: 12px; font-family: &quot;TradeGothic LT Bold&quot;; color: rgb(0, 0, 0); line-height: 1.2; pointer-events: all; white-space: normal; overflow-wrap: normal;">Access to global secrets</div></div></div></foreignObject><text x="55" y="199" fill="rgb(0, 0, 0)" font-family="TradeGothic LT Bold" font-size="12px" text-anchor="middle">Access to globa...</text></switch></g><rect x="130" y="180" width="90" height="30" fill="none" stroke="none" pointer-events="all"/><g transform="translate(-0.5 -0.5)"><switch><foreignObject pointer-events="none" width="100%" height="100%" requiredFeatures="http://www.w3.org/TR/SVG11/feature#Extensibility" style="overflow: visible; text-align: left;"><div xmlns="http://www.w3.org/1999/xhtml" style="display: flex; align-items: unsafe center; justify-content: unsafe center; width: 88px; height: 1px; padding-top: 195px; margin-left: 131px;"><div data-drawio-colors="color: rgb(0, 0, 0); " style="box-sizing: border-box; font-size: 0px; text-align: center;"><div style="display: inline-block; font-size: 12px; font-family: &quot;TradeGothic LT Bold&quot;; color: rgb(0, 0, 0); line-height: 1.2; pointer-events: all; white-space: normal; overflow-wrap: normal;">Access to global secrets</div></div></div></foreignObject><text x="175" y="199" fill="rgb(0, 0, 0)" font-family="TradeGothic LT Bold" font-size="12px" text-anchor="middle">Access to globa...</text></switch></g><path d="M 44.9 111.79 L 31.13 111.79 C 27.08 111.79 23.25 108.89 23.25 106.05 L 23.25 103.4 C 23.25 101.78 24.57 99.51 26.37 98.23 C 27.43 97.49 28.19 97.33 29.97 96.88 L 29.89 95.17 C 29.89 91.9 31.39 89.07 34.37 87.04 C 36.71 85.51 39.56 85 41.96 85.29 C 45.86 85.77 48.75 87.89 50.29 90.56 L 51.68 93.33 L 54.22 91.71 C 55.46 91.02 57.13 91.04 58.12 91.44 C 59.68 92.04 60.75 93.34 60.8 94.97 L 60.86 96.83 L 62.89 96.95 C 66.64 97.22 70 100.74 70 103.49 L 69.98 106.03 C 69.98 108.76 66.35 111.79 61.99 111.79 L 47 111.79 L 47 119.27 L 65.81 119.27 L 65.81 135 L 26.06 135 L 26.06 119.27 L 44.9 119.27 Z" fill="#000000" stroke="none" pointer-events="all"/><path d="M 47 111.79 L 47 109.98 L 61.83 109.98 C 66.28 109.98 69.99 107.06 69.99 104.27 L 69.98 106.03 C 69.98 108.76 66.35 111.79 61.99 111.79 Z M 44.9 111.79 L 31.13 111.79 C 27.09 111.79 23.25 108.89 23.25 106.05 L 23.25 104.34 C 23.25 106.82 26.79 109.98 31.22 109.98 L 44.9 109.98 Z M 65.81 135 L 26.06 135 L 26.06 133.13 L 65.81 133.13 Z" fill-opacity="0.3" fill="#000000" stroke="none" pointer-events="all"/><rect x="23.25" y="85" width="0" height="0" fill="none" stroke="rgb(0, 0, 0)" pointer-events="all"/><path d="M 44.9 109.98 L 44.9 104.24 L 42.86 104.24 L 45.94 100.19 L 49.02 104.24 L 47 104.24 L 47 109.98 Z M 37.43 126.06 C 37.43 127.7 36.01 129.07 34.14 129.07 C 32.49 129.07 30.9 128.02 30.86 126.04 C 30.86 124.41 32.34 123.08 34.16 123.08 C 35.78 123.08 37.43 124.25 37.43 126.06 Z M 50.12 129.07 L 41.55 129.07 L 45.87 123.02 Z M 54.22 129.07 L 54.22 123.02 L 60.86 123.02 L 60.86 129.07 Z" fill="#ffffff" stroke="none" pointer-events="all"/><path d="M 178.14 137.37 L 175.06 137.37 L 175.06 132.29 L 173.53 132.29 L 173.53 137.37 L 170.45 137.37 L 170.45 132.29 L 168.91 132.3 L 168.91 137.37 L 165.84 137.36 L 165.84 132.3 L 164.3 132.29 L 164.3 137.36 L 161.22 137.37 L 161.22 132.29 L 159.69 132.29 L 159.69 137.37 L 156.61 137.37 L 156.61 132.3 L 153.94 132.29 C 150.32 132.29 146.99 129.27 146.99 125.39 L 146.99 120.75 L 140 120.75 L 140 117.68 L 146.99 117.68 L 146.99 116.14 L 140 116.14 L 140 113.08 L 146.99 113.08 L 146.99 111.53 L 140 111.53 L 140 108.45 L 146.99 108.45 L 146.99 106.91 L 140 106.91 L 140 103.84 L 146.99 103.84 L 146.99 102.3 L 140 102.3 L 140 99.23 L 146.99 99.23 L 146.99 96.49 C 146.99 93.11 149.87 89.62 153.96 89.62 L 156.61 89.62 L 156.61 82.62 L 159.69 82.63 L 159.69 89.62 L 161.22 89.62 L 161.22 82.62 L 164.3 82.63 L 164.3 89.62 L 165.84 89.62 L 165.84 82.63 L 168.91 82.62 L 168.91 89.62 L 170.45 89.62 L 170.45 82.62 L 173.53 82.63 L 173.53 89.62 L 175.06 89.62 L 175.06 82.62 L 178.14 82.63 L 178.14 89.62 L 180.84 89.62 C 184.32 89.62 187.75 92.52 187.75 96.62 L 187.75 99.23 L 194.75 99.23 L 194.75 102.3 L 187.75 102.3 L 187.75 103.84 L 194.75 103.84 L 194.75 106.91 L 187.75 106.91 L 187.75 108.45 L 194.75 108.46 L 194.75 111.53 L 187.75 111.53 L 187.75 113.08 L 194.75 113.08 L 194.75 116.14 L 187.75 116.14 L 187.75 117.68 L 194.75 117.68 L 194.75 120.75 L 187.75 120.75 L 187.75 125.38 C 187.75 128.88 184.79 132.3 180.77 132.3 L 178.14 132.29 Z" fill="#000000" stroke="none" pointer-events="all"/><path d="M 156.61 132.3 L 153.94 132.29 C 150.32 132.29 146.99 129.26 146.99 125.39 L 146.99 123.62 C 146.99 126.61 149.63 130.37 154.03 130.37 L 156.61 130.37 Z M 159.69 132.29 L 159.69 130.37 L 161.22 130.38 L 161.22 132.29 Z M 164.3 132.29 L 164.3 130.37 L 165.84 130.37 L 165.84 132.3 Z M 168.91 132.3 L 168.91 130.37 L 170.45 130.37 L 170.45 132.29 Z M 173.53 132.29 L 173.53 130.37 L 175.06 130.37 L 175.06 132.29 Z M 178.14 132.29 L 178.14 130.37 L 180.91 130.37 C 184.51 130.37 187.75 127.22 187.75 123.56 L 187.75 125.38 C 187.75 128.89 184.79 132.3 180.77 132.3 Z" fill-opacity="0.3" fill="#000000" stroke="none" pointer-events="all"/><rect x="140" y="82.62" width="0" height="0" fill="none" stroke="rgb(0, 0, 0)" pointer-events="all"/><path d="M 164.68 117.07 L 164.68 112.68 L 160.3 112.68 L 160.3 107.29 L 164.68 107.29 L 164.68 102.92 L 170.06 102.92 L 170.06 107.29 L 174.45 107.29 L 174.45 112.68 L 170.06 112.68 L 170.06 117.07 Z M 176.76 120.99 C 177.6 120.99 178.29 120.3 178.29 119.41 L 178.29 100.6 C 178.29 99.87 177.69 99.07 176.75 99.07 L 157.85 99.07 C 157.12 99.09 156.37 99.73 156.37 100.59 L 156.37 119.47 C 156.37 120.36 157.18 120.98 157.84 120.98 Z M 157.98 123.21 C 155.86 123.21 154.15 121.5 154.15 119.36 L 154.15 100.53 C 154.15 98.25 156.09 96.68 157.89 96.68 L 176.83 96.68 C 179.04 96.68 180.67 98.51 180.67 100.48 L 180.67 119.27 C 180.67 121.46 178.9 123.21 176.9 123.21 Z" fill="#ffffff" stroke="none" pointer-events="all"/><rect x="0" y="180" width="230" height="30" fill-opacity="0.4" fill="#f5f5f5" stroke="#666666" stroke-opacity="0.4" stroke-dasharray="3 3" pointer-events="all"/><path d="M 425.76 132.37 L 422.68 132.37 L 422.68 127.29 L 421.15 127.29 L 421.15 132.37 L 418.07 132.37 L 418.07 127.29 L 416.53 127.3 L 416.53 132.37 L 413.46 132.36 L 413.46 127.3 L 411.92 127.29 L 411.92 132.36 L 408.84 132.37 L 408.84 127.29 L 407.31 127.29 L 407.31 132.37 L 404.23 132.37 L 404.23 127.3 L 401.56 127.29 C 397.94 127.29 394.61 124.27 394.61 120.39 L 394.61 115.75 L 387.62 115.75 L 387.62 112.68 L 394.61 112.68 L 394.61 111.14 L 387.62 111.14 L 387.62 108.08 L 394.61 108.08 L 394.61 106.53 L 387.62 106.53 L 387.62 103.45 L 394.61 103.45 L 394.61 101.91 L 387.62 101.91 L 387.62 98.84 L 394.61 98.84 L 394.61 97.3 L 387.62 97.3 L 387.62 94.23 L 394.61 94.23 L 394.61 91.49 C 394.61 88.11 397.49 84.62 401.58 84.62 L 404.23 84.62 L 404.23 77.62 L 407.31 77.63 L 407.31 84.62 L 408.84 84.62 L 408.84 77.62 L 411.92 77.63 L 411.92 84.62 L 413.46 84.62 L 413.46 77.63 L 416.53 77.62 L 416.53 84.62 L 418.07 84.62 L 418.07 77.62 L 421.15 77.63 L 421.15 84.62 L 422.68 84.62 L 422.68 77.62 L 425.76 77.63 L 425.76 84.62 L 428.46 84.62 C 431.94 84.62 435.37 87.52 435.37 91.62 L 435.37 94.23 L 442.37 94.23 L 442.37 97.3 L 435.37 97.3 L 435.37 98.84 L 442.37 98.84 L 442.37 101.91 L 435.37 101.91 L 435.37 103.45 L 442.37 103.46 L 442.37 106.53 L 435.37 106.53 L 435.37 108.08 L 442.37 108.08 L 442.37 111.14 L 435.37 111.14 L 435.37 112.68 L 442.37 112.68 L 442.37 115.75 L 435.37 115.75 L 435.37 120.38 C 435.37 123.88 432.41 127.3 428.39 127.3 L 425.76 127.29 Z" fill="#ff0000" stroke="none" pointer-events="all"/><path d="M 404.23 127.3 L 401.56 127.29 C 397.94 127.29 394.61 124.26 394.61 120.39 L 394.61 118.62 C 394.61 121.61 397.25 125.37 401.65 125.37 L 404.23 125.37 Z M 407.31 127.29 L 407.31 125.37 L 408.84 125.38 L 408.84 127.29 Z M 411.92 127.29 L 411.92 125.37 L 413.46 125.37 L 413.46 127.3 Z M 416.53 127.3 L 416.53 125.37 L 418.07 125.37 L 418.07 127.29 Z M 421.15 127.29 L 421.15 125.37 L 422.68 125.37 L 422.68 127.29 Z M 425.76 127.29 L 425.76 125.37 L 428.53 125.37 C 432.13 125.37 435.37 122.22 435.37 118.56 L 435.37 120.38 C 435.37 123.89 432.41 127.3 428.39 127.3 Z" fill-opacity="0.3" fill="#000000" stroke="none" pointer-events="all"/><rect x="387.62" y="77.62" width="0" height="0" fill="none" stroke="#f50800" pointer-events="all"/><path d="M 412.3 112.07 L 412.3 107.68 L 407.92 107.68 L 407.92 102.29 L 412.3 102.29 L 412.3 97.92 L 417.68 97.92 L 417.68 102.29 L 422.07 102.29 L 422.07 107.68 L 417.68 107.68 L 417.68 112.07 Z M 424.38 115.99 C 425.22 115.99 425.91 115.3 425.91 114.41 L 425.91 95.6 C 425.91 94.87 425.31 94.07 424.37 94.07 L 405.47 94.07 C 404.74 94.09 403.99 94.73 403.99 95.59 L 403.99 114.47 C 403.99 115.36 404.8 115.98 405.46 115.98 Z M 405.6 118.21 C 403.48 118.21 401.77 116.5 401.77 114.36 L 401.77 95.53 C 401.77 93.25 403.71 91.68 405.51 91.68 L 424.45 91.68 C 426.66 91.68 428.29 93.51 428.29 95.48 L 428.29 114.27 C 428.29 116.46 426.52 118.21 424.52 118.21 Z" fill="#ffffff" stroke="none" pointer-events="all"/><rect x="369.99" y="180" width="90" height="30" fill="none" stroke="none" pointer-events="all"/><g transform="translate(-0.5 -0.5)"><switch><foreignObject pointer-events="none" width="100%" height="100%" requiredFeatures="http://www.w3.org/TR/SVG11/feature#Extensibility" style="overflow: visible; text-align: left;"><div xmlns="http://www.w3.org/1999/xhtml" style="display: flex; align-items: unsafe center; justify-content: unsafe center; width: 88px; height: 1px; padding-top: 195px; margin-left: 371px;"><div data-drawio-colors="color: rgb(0, 0, 0); " style="box-sizing: border-box; font-size: 0px; text-align: center;"><div style="display: inline-block; font-size: 12px; font-family: &quot;TradeGothic LT Bold&quot;; color: rgb(0, 0, 0); line-height: 1.2; pointer-events: all; white-space: normal; overflow-wrap: normal;">Certified repair Technician</div></div></div></foreignObject><text x="415" y="199" fill="rgb(0, 0, 0)" font-family="TradeGothic LT Bold" font-size="12px" text-anchor="middle">Certified repai...</text></switch></g><path d="M 277.87 80 L 275.62 80 L 275.62 76.29 L 274.49 76.29 L 274.49 80 L 272.25 80 L 272.25 76.29 L 271.12 76.29 L 271.12 80 L 268.88 79.99 L 268.88 76.29 L 267.75 76.29 L 267.75 79.99 L 265.51 80 L 265.51 76.29 L 264.38 76.29 L 264.38 80 L 262.13 80 L 262.13 76.29 L 260.19 76.29 C 257.54 76.29 255.11 74.08 255.11 71.25 L 255.11 67.86 L 250 67.86 L 250 65.61 L 255.11 65.61 L 255.11 64.49 L 250 64.49 L 250 62.25 L 255.11 62.25 L 255.11 61.12 L 250 61.12 L 250 58.87 L 255.11 58.87 L 255.11 57.75 L 250 57.75 L 250 55.5 L 255.11 55.5 L 255.11 54.38 L 250 54.38 L 250 52.13 L 255.11 52.13 L 255.11 50.13 C 255.11 47.66 257.21 45.12 260.2 45.12 L 262.13 45.12 L 262.13 40 L 264.38 40.01 L 264.38 45.12 L 265.51 45.12 L 265.51 40 L 267.75 40.01 L 267.75 45.12 L 268.88 45.12 L 268.88 40.01 L 271.12 40 L 271.12 45.12 L 272.25 45.12 L 272.25 40 L 274.49 40.01 L 274.49 45.12 L 275.62 45.12 L 275.62 40 L 277.87 40.01 L 277.87 45.12 L 279.84 45.12 C 282.38 45.12 284.88 47.23 284.88 50.23 L 284.88 52.13 L 290 52.13 L 290 54.38 L 284.88 54.38 L 284.88 55.5 L 290 55.5 L 290 57.75 L 284.88 57.75 L 284.88 58.87 L 290 58.88 L 290 61.12 L 284.88 61.12 L 284.88 62.25 L 290 62.25 L 290 64.49 L 284.88 64.49 L 284.88 65.61 L 290 65.61 L 290 67.86 L 284.88 67.86 L 284.88 71.24 C 284.88 73.8 282.73 76.29 279.78 76.29 L 277.87 76.29 Z" fill="#000000" stroke="none" pointer-events="all"/><path d="M 262.13 76.29 L 260.19 76.29 C 257.54 76.29 255.11 74.08 255.11 71.25 L 255.11 69.96 C 255.11 72.14 257.03 74.88 260.25 74.88 L 262.13 74.88 Z M 264.38 76.29 L 264.38 74.88 L 265.51 74.89 L 265.51 76.29 Z M 267.75 76.29 L 267.75 74.88 L 268.88 74.88 L 268.88 76.29 Z M 271.12 76.29 L 271.12 74.88 L 272.25 74.88 L 272.25 76.29 Z M 274.49 76.29 L 274.49 74.88 L 275.62 74.88 L 275.62 76.29 Z M 277.87 76.29 L 277.87 74.88 L 279.89 74.88 C 282.52 74.88 284.88 72.59 284.88 69.91 L 284.88 71.24 C 284.88 73.81 282.73 76.29 279.78 76.29 Z" fill-opacity="0.3" fill="#000000" stroke="none" pointer-events="all"/><rect x="250" y="40" width="0" height="0" fill="none" stroke="rgb(0, 0, 0)" pointer-events="all"/><path d="M 268.03 65.17 L 268.03 61.96 L 264.83 61.96 L 264.83 58.03 L 268.03 58.03 L 268.03 54.83 L 271.96 54.83 L 271.96 58.03 L 275.17 58.03 L 275.17 61.96 L 271.96 61.96 L 271.96 65.17 Z M 276.85 68.03 C 277.47 68.03 277.98 67.53 277.98 66.88 L 277.98 53.14 C 277.98 52.6 277.54 52.02 276.85 52.02 L 263.04 52.02 C 262.51 52.04 261.96 52.5 261.96 53.13 L 261.96 66.92 C 261.96 67.58 262.55 68.02 263.03 68.02 Z M 263.14 69.66 C 261.59 69.66 260.34 68.41 260.34 66.84 L 260.34 53.08 C 260.34 51.42 261.75 50.28 263.07 50.28 L 276.91 50.28 C 278.52 50.28 279.72 51.61 279.72 53.05 L 279.72 66.77 C 279.72 68.38 278.42 69.66 276.96 69.66 Z" fill="#ffffff" stroke="none" pointer-events="all"/><path d="M 327.87 125 L 325.62 125 L 325.62 121.29 L 324.49 121.29 L 324.49 125 L 322.25 125 L 322.25 121.29 L 321.12 121.29 L 321.12 125 L 318.88 124.99 L 318.88 121.29 L 317.75 121.29 L 317.75 124.99 L 315.51 125 L 315.51 121.29 L 314.38 121.29 L 314.38 125 L 312.13 125 L 312.13 121.29 L 310.19 121.29 C 307.54 121.29 305.11 119.08 305.11 116.25 L 305.11 112.86 L 300 112.86 L 300 110.61 L 305.11 110.61 L 305.11 109.49 L 300 109.49 L 300 107.25 L 305.11 107.25 L 305.11 106.12 L 300 106.12 L 300 103.87 L 305.11 103.87 L 305.11 102.75 L 300 102.75 L 300 100.5 L 305.11 100.5 L 305.11 99.38 L 300 99.38 L 300 97.13 L 305.11 97.13 L 305.11 95.13 C 305.11 92.66 307.21 90.12 310.2 90.12 L 312.13 90.12 L 312.13 85 L 314.38 85.01 L 314.38 90.12 L 315.51 90.12 L 315.51 85 L 317.75 85.01 L 317.75 90.12 L 318.88 90.12 L 318.88 85.01 L 321.12 85 L 321.12 90.12 L 322.25 90.12 L 322.25 85 L 324.49 85.01 L 324.49 90.12 L 325.62 90.12 L 325.62 85 L 327.87 85.01 L 327.87 90.12 L 329.84 90.12 C 332.38 90.12 334.88 92.23 334.88 95.23 L 334.88 97.13 L 340 97.13 L 340 99.38 L 334.88 99.38 L 334.88 100.5 L 340 100.5 L 340 102.75 L 334.88 102.75 L 334.88 103.87 L 340 103.88 L 340 106.12 L 334.88 106.12 L 334.88 107.25 L 340 107.25 L 340 109.49 L 334.88 109.49 L 334.88 110.61 L 340 110.61 L 340 112.86 L 334.88 112.86 L 334.88 116.24 C 334.88 118.8 332.73 121.29 329.78 121.29 L 327.87 121.29 Z" fill="#000000" stroke="none" pointer-events="all"/><path d="M 312.13 121.29 L 310.19 121.29 C 307.54 121.29 305.11 119.08 305.11 116.25 L 305.11 114.96 C 305.11 117.14 307.03 119.88 310.25 119.88 L 312.13 119.88 Z M 314.38 121.29 L 314.38 119.88 L 315.51 119.89 L 315.51 121.29 Z M 317.75 121.29 L 317.75 119.88 L 318.88 119.88 L 318.88 121.29 Z M 321.12 121.29 L 321.12 119.88 L 322.25 119.88 L 322.25 121.29 Z M 324.49 121.29 L 324.49 119.88 L 325.62 119.88 L 325.62 121.29 Z M 327.87 121.29 L 327.87 119.88 L 329.89 119.88 C 332.52 119.88 334.88 117.59 334.88 114.91 L 334.88 116.24 C 334.88 118.81 332.73 121.29 329.78 121.29 Z" fill-opacity="0.3" fill="#000000" stroke="none" pointer-events="all"/><rect x="300" y="85" width="0" height="0" fill="none" stroke="rgb(0, 0, 0)" pointer-events="all"/><path d="M 318.03 110.17 L 318.03 106.96 L 314.83 106.96 L 314.83 103.03 L 318.03 103.03 L 318.03 99.83 L 321.96 99.83 L 321.96 103.03 L 325.17 103.03 L 325.17 106.96 L 321.96 106.96 L 321.96 110.17 Z M 326.85 113.03 C 327.47 113.03 327.98 112.53 327.98 111.88 L 327.98 98.14 C 327.98 97.6 327.54 97.02 326.85 97.02 L 313.04 97.02 C 312.51 97.04 311.96 97.5 311.96 98.13 L 311.96 111.92 C 311.96 112.58 312.55 113.02 313.03 113.02 Z M 313.14 114.66 C 311.59 114.66 310.34 113.41 310.34 111.84 L 310.34 98.08 C 310.34 96.42 311.75 95.28 313.07 95.28 L 326.91 95.28 C 328.52 95.28 329.72 96.61 329.72 98.05 L 329.72 111.77 C 329.72 113.38 328.42 114.66 326.96 114.66 Z" fill="#ffffff" stroke="none" pointer-events="all"/><path d="M 277.87 170 L 275.62 170 L 275.62 166.29 L 274.49 166.29 L 274.49 170 L 272.25 170 L 272.25 166.29 L 271.12 166.29 L 271.12 170 L 268.88 169.99 L 268.88 166.29 L 267.75 166.29 L 267.75 169.99 L 265.51 170 L 265.51 166.29 L 264.38 166.29 L 264.38 170 L 262.13 170 L 262.13 166.29 L 260.19 166.29 C 257.54 166.29 255.11 164.08 255.11 161.25 L 255.11 157.86 L 250 157.86 L 250 155.61 L 255.11 155.61 L 255.11 154.49 L 250 154.49 L 250 152.25 L 255.11 152.25 L 255.11 151.12 L 250 151.12 L 250 148.87 L 255.11 148.87 L 255.11 147.75 L 250 147.75 L 250 145.5 L 255.11 145.5 L 255.11 144.38 L 250 144.38 L 250 142.13 L 255.11 142.13 L 255.11 140.13 C 255.11 137.66 257.21 135.12 260.2 135.12 L 262.13 135.12 L 262.13 130 L 264.38 130.01 L 264.38 135.12 L 265.51 135.12 L 265.51 130 L 267.75 130.01 L 267.75 135.12 L 268.88 135.12 L 268.88 130.01 L 271.12 130 L 271.12 135.12 L 272.25 135.12 L 272.25 130 L 274.49 130.01 L 274.49 135.12 L 275.62 135.12 L 275.62 130 L 277.87 130.01 L 277.87 135.12 L 279.84 135.12 C 282.38 135.12 284.88 137.23 284.88 140.23 L 284.88 142.13 L 290 142.13 L 290 144.38 L 284.88 144.38 L 284.88 145.5 L 290 145.5 L 290 147.75 L 284.88 147.75 L 284.88 148.87 L 290 148.88 L 290 151.12 L 284.88 151.12 L 284.88 152.25 L 290 152.25 L 290 154.49 L 284.88 154.49 L 284.88 155.61 L 290 155.61 L 290 157.86 L 284.88 157.86 L 284.88 161.24 C 284.88 163.8 282.73 166.29 279.78 166.29 L 277.87 166.29 Z" fill="#000000" stroke="none" pointer-events="all"/><path d="M 262.13 166.29 L 260.19 166.29 C 257.54 166.29 255.11 164.08 255.11 161.25 L 255.11 159.96 C 255.11 162.14 257.03 164.88 260.25 164.88 L 262.13 164.88 Z M 264.38 166.29 L 264.38 164.88 L 265.51 164.89 L 265.51 166.29 Z M 267.75 166.29 L 267.75 164.88 L 268.88 164.88 L 268.88 166.29 Z M 271.12 166.29 L 271.12 164.88 L 272.25 164.88 L 272.25 166.29 Z M 274.49 166.29 L 274.49 164.88 L 275.62 164.88 L 275.62 166.29 Z M 277.87 166.29 L 277.87 164.88 L 279.89 164.88 C 282.52 164.88 284.88 162.59 284.88 159.91 L 284.88 161.24 C 284.88 163.81 282.73 166.29 279.78 166.29 Z" fill-opacity="0.3" fill="#000000" stroke="none" pointer-events="all"/><rect x="250" y="130" width="0" height="0" fill="none" stroke="rgb(0, 0, 0)" pointer-events="all"/><path d="M 268.03 155.17 L 268.03 151.96 L 264.83 151.96 L 264.83 148.03 L 268.03 148.03 L 268.03 144.83 L 271.96 144.83 L 271.96 148.03 L 275.17 148.03 L 275.17 151.96 L 271.96 151.96 L 271.96 155.17 Z M 276.85 158.03 C 277.47 158.03 277.98 157.53 277.98 156.88 L 277.98 143.14 C 277.98 142.6 277.54 142.02 276.85 142.02 L 263.04 142.02 C 262.51 142.04 261.96 142.5 261.96 143.13 L 261.96 156.92 C 261.96 157.58 262.55 158.02 263.03 158.02 Z M 263.14 159.66 C 261.59 159.66 260.34 158.41 260.34 156.84 L 260.34 143.08 C 260.34 141.42 261.75 140.28 263.07 140.28 L 276.91 140.28 C 278.52 140.28 279.72 141.61 279.72 143.05 L 279.72 156.77 C 279.72 158.38 278.42 159.66 276.96 159.66 Z" fill="#ffffff" stroke="none" pointer-events="all"/><rect x="240" y="180" width="110" height="30" fill="none" stroke="none" pointer-events="all"/><g transform="translate(-0.5 -0.5)"><switch><foreignObject pointer-events="none" width="100%" height="100%" requiredFeatures="http://www.w3.org/TR/SVG11/feature#Extensibility" style="overflow: visible; text-align: left;"><div xmlns="http://www.w3.org/1999/xhtml" style="display: flex; align-items: unsafe center; justify-content: unsafe center; width: 108px; height: 1px; padding-top: 195px; margin-left: 241px;"><div data-drawio-colors="color: rgb(0, 0, 0); " style="box-sizing: border-box; font-size: 0px; text-align: center;"><div style="display: inline-block; font-size: 12px; font-family: &quot;TradeGothic LT Bold&quot;; color: rgb(0, 0, 0); line-height: 1.2; pointer-events: all; white-space: normal; overflow-wrap: normal;">Devices in operation</div></div></div></foreignObject><text x="295" y="199" fill="rgb(0, 0, 0)" font-family="TradeGothic LT Bold" font-size="12px" text-anchor="middle">Devices in operati...</text></switch></g></g></svg>