<?xml version="1.0" encoding="UTF-8"?>
<!-- Do not edit this file with editors other than draw.io -->
<!DOCTYPE svg PUBLIC "-//W3C//DTD SVG 1.1//EN" "http://www.w3.org/Graphics/SVG/1.1/DTD/svg11.dtd">
<svg xmlns="http://www.w3.org/2000/svg" xmlns:xlink="http://www.w3.org/1999/xlink" version="1.1" width="381px" height="454px" viewBox="-0.5 -0.5 381 454" content="&lt;mxfile host=&quot;Electron&quot; modified=&quot;2024-01-26T17:36:14.778Z&quot; agent=&quot;Mozilla/5.0 (Macintosh; Intel Mac OS X 10_15_7) AppleWebKit/537.36 (KHTML, like Gecko) draw.io/23.0.2 Chrome/120.0.6099.109 Electron/28.1.0 Safari/537.36&quot; version=&quot;23.0.2&quot; etag=&quot;_y6Qh8QsZ03gPk8b6-p3&quot; type=&quot;device&quot; scale=&quot;1&quot; border=&quot;0&quot;&gt;&#10;  &lt;diagram name=&quot;Page-1&quot; id=&quot;g7MuUlbRosX45S_rEQFw&quot;&gt;&#10;    &lt;mxGraphModel dx=&quot;794&quot; dy=&quot;1214&quot; grid=&quot;1&quot; gridSize=&quot;10&quot; guides=&quot;1&quot; tooltips=&quot;1&quot; connect=&quot;1&quot; arrows=&quot;1&quot; fold=&quot;1&quot; page=&quot;1&quot; pageScale=&quot;1&quot; pageWidth=&quot;850&quot; pageHeight=&quot;1100&quot; math=&quot;0&quot; shadow=&quot;0&quot;&gt;&#10;      &lt;root&gt;&#10;        &lt;mxCell id=&quot;0&quot; /&gt;&#10;        &lt;mxCell id=&quot;1&quot; parent=&quot;0&quot; /&gt;&#10;        &lt;mxCell id=&quot;2&quot; value=&quot;&quot; style=&quot;edgeStyle=orthogonalEdgeStyle;rounded=0;orthogonalLoop=1;jettySize=auto;html=1;fontFamily=TradeGothic LT Bold;&quot; edge=&quot;1&quot; source=&quot;3&quot; target=&quot;21&quot; parent=&quot;1&quot;&gt;&#10;          &lt;mxGeometry relative=&quot;1&quot; as=&quot;geometry&quot; /&gt;&#10;        &lt;/mxCell&gt;&#10;        &lt;mxCell id=&quot;3&quot; value=&quot;Replace Component&quot; style=&quot;rounded=0;whiteSpace=wrap;html=1;fillColor=#F0F1F2;strokeColor=#000000;fontFamily=TradeGothic LT Bold;&quot; vertex=&quot;1&quot; parent=&quot;1&quot;&gt;&#10;          &lt;mxGeometry x=&quot;400&quot; y=&quot;320&quot; width=&quot;80&quot; height=&quot;50&quot; as=&quot;geometry&quot; /&gt;&#10;        &lt;/mxCell&gt;&#10;        &lt;mxCell id=&quot;4&quot; style=&quot;edgeStyle=orthogonalEdgeStyle;rounded=0;orthogonalLoop=1;jettySize=auto;html=1;entryX=0.5;entryY=0;entryDx=0;entryDy=0;fontFamily=TradeGothic LT Bold;&quot; edge=&quot;1&quot; source=&quot;5&quot; target=&quot;25&quot; parent=&quot;1&quot;&gt;&#10;          &lt;mxGeometry relative=&quot;1&quot; as=&quot;geometry&quot; /&gt;&#10;        &lt;/mxCell&gt;&#10;        &lt;mxCell id=&quot;5&quot; value=&quot;Attestation&quot; style=&quot;rounded=0;whiteSpace=wrap;html=1;fillColor=#F0F1F2;strokeColor=#000000;fontFamily=TradeGothic LT Bold;&quot; vertex=&quot;1&quot; parent=&quot;1&quot;&gt;&#10;          &lt;mxGeometry x=&quot;500&quot; y=&quot;320&quot; width=&quot;80&quot; height=&quot;50&quot; as=&quot;geometry&quot; /&gt;&#10;        &lt;/mxCell&gt;&#10;        &lt;mxCell id=&quot;6&quot; value=&quot;&quot; style=&quot;rounded=1;whiteSpace=wrap;html=1;fillColor=#6241C5;strokeColor=#000000;fontColor=#FFFFFF;fontFamily=TradeGothic LT Bold;&quot; vertex=&quot;1&quot; parent=&quot;1&quot;&gt;&#10;          &lt;mxGeometry x=&quot;200&quot; y=&quot;503&quot; width=&quot;50&quot; height=&quot;20&quot; as=&quot;geometry&quot; /&gt;&#10;        &lt;/mxCell&gt;&#10;        &lt;mxCell id=&quot;7&quot; value=&quot;Attacker does not have access&quot; style=&quot;text;html=1;strokeColor=none;fillColor=none;align=left;verticalAlign=middle;whiteSpace=wrap;rounded=0;fontFamily=TradeGothic LT Bold;&quot; vertex=&quot;1&quot; parent=&quot;1&quot;&gt;&#10;          &lt;mxGeometry x=&quot;265&quot; y=&quot;498&quot; width=&quot;170&quot; height=&quot;30&quot; as=&quot;geometry&quot; /&gt;&#10;        &lt;/mxCell&gt;&#10;        &lt;mxCell id=&quot;8&quot; value=&quot;&quot; style=&quot;rounded=1;whiteSpace=wrap;html=1;fillColor=#FFF601;strokeColor=#000000;fontFamily=TradeGothic LT Bold;&quot; vertex=&quot;1&quot; parent=&quot;1&quot;&gt;&#10;          &lt;mxGeometry x=&quot;200&quot; y=&quot;553&quot; width=&quot;50&quot; height=&quot;20&quot; as=&quot;geometry&quot; /&gt;&#10;        &lt;/mxCell&gt;&#10;        &lt;mxCell id=&quot;9&quot; value=&quot;Attacker always has access&quot; style=&quot;text;html=1;strokeColor=none;fillColor=none;align=left;verticalAlign=middle;whiteSpace=wrap;rounded=0;fontFamily=TradeGothic LT Bold;&quot; vertex=&quot;1&quot; parent=&quot;1&quot;&gt;&#10;          &lt;mxGeometry x=&quot;265&quot; y=&quot;548&quot; width=&quot;170&quot; height=&quot;30&quot; as=&quot;geometry&quot; /&gt;&#10;        &lt;/mxCell&gt;&#10;        &lt;mxCell id=&quot;10&quot; value=&quot;&quot; style=&quot;rounded=1;whiteSpace=wrap;html=1;fillColor=#f5f5f5;fontColor=#333333;strokeColor=#000000;fontFamily=TradeGothic LT Bold;&quot; vertex=&quot;1&quot; parent=&quot;1&quot;&gt;&#10;          &lt;mxGeometry x=&quot;200&quot; y=&quot;578&quot; width=&quot;50&quot; height=&quot;20&quot; as=&quot;geometry&quot; /&gt;&#10;        &lt;/mxCell&gt;&#10;        &lt;mxCell id=&quot;11&quot; value=&quot;Host tool, required by each team&quot; style=&quot;text;html=1;strokeColor=none;fillColor=none;align=left;verticalAlign=middle;whiteSpace=wrap;rounded=0;fontFamily=TradeGothic LT Bold;&quot; vertex=&quot;1&quot; parent=&quot;1&quot;&gt;&#10;          &lt;mxGeometry x=&quot;265&quot; y=&quot;573&quot; width=&quot;190&quot; height=&quot;30&quot; as=&quot;geometry&quot; /&gt;&#10;        &lt;/mxCell&gt;&#10;        &lt;mxCell id=&quot;12&quot; value=&quot;&quot; style=&quot;rounded=1;whiteSpace=wrap;html=1;fillColor=#7DEA49;strokeColor=#000000;fontFamily=TradeGothic LT Bold;&quot; vertex=&quot;1&quot; parent=&quot;1&quot;&gt;&#10;          &lt;mxGeometry x=&quot;200&quot; y=&quot;528&quot; width=&quot;50&quot; height=&quot;20&quot; as=&quot;geometry&quot; /&gt;&#10;        &lt;/mxCell&gt;&#10;        &lt;mxCell id=&quot;13&quot; value=&quot;Attacker has access in some scenarios&quot; style=&quot;text;html=1;strokeColor=none;fillColor=none;align=left;verticalAlign=middle;whiteSpace=wrap;rounded=0;fontFamily=TradeGothic LT Bold;&quot; vertex=&quot;1&quot; parent=&quot;1&quot;&gt;&#10;          &lt;mxGeometry x=&quot;265&quot; y=&quot;523&quot; width=&quot;215&quot; height=&quot;30&quot; as=&quot;geometry&quot; /&gt;&#10;        &lt;/mxCell&gt;&#10;        &lt;mxCell id=&quot;14&quot; value=&quot;&quot; style=&quot;edgeStyle=orthogonalEdgeStyle;rounded=0;orthogonalLoop=1;jettySize=auto;html=1;fontFamily=TradeGothic LT Bold;&quot; edge=&quot;1&quot; source=&quot;15&quot; target=&quot;16&quot; parent=&quot;1&quot;&gt;&#10;          &lt;mxGeometry relative=&quot;1&quot; as=&quot;geometry&quot; /&gt;&#10;        &lt;/mxCell&gt;&#10;        &lt;mxCell id=&quot;15&quot; value=&quot;Boot Board&quot; style=&quot;rounded=0;whiteSpace=wrap;html=1;fillColor=#F0F1F2;strokeColor=#000000;fontFamily=TradeGothic LT Bold;&quot; vertex=&quot;1&quot; parent=&quot;1&quot;&gt;&#10;          &lt;mxGeometry x=&quot;300&quot; y=&quot;320&quot; width=&quot;80&quot; height=&quot;50&quot; as=&quot;geometry&quot; /&gt;&#10;        &lt;/mxCell&gt;&#10;        &lt;mxCell id=&quot;16&quot; value=&quot;Boot Message&quot; style=&quot;rounded=1;whiteSpace=wrap;html=1;fillColor=#7DEA49;strokeColor=#000000;fontFamily=TradeGothic LT Bold;&quot; vertex=&quot;1&quot; parent=&quot;1&quot;&gt;&#10;          &lt;mxGeometry x=&quot;300&quot; y=&quot;390&quot; width=&quot;80&quot; height=&quot;50&quot; as=&quot;geometry&quot; /&gt;&#10;        &lt;/mxCell&gt;&#10;        &lt;mxCell id=&quot;17&quot; value=&quot;&quot; style=&quot;edgeStyle=orthogonalEdgeStyle;rounded=0;orthogonalLoop=1;jettySize=auto;html=1;fontFamily=TradeGothic LT Bold;&quot; edge=&quot;1&quot; source=&quot;18&quot; target=&quot;3&quot; parent=&quot;1&quot;&gt;&#10;          &lt;mxGeometry relative=&quot;1&quot; as=&quot;geometry&quot; /&gt;&#10;        &lt;/mxCell&gt;&#10;        &lt;mxCell id=&quot;18&quot; value=&quot;Component&amp;lt;br&amp;gt;ID Out&quot; style=&quot;rounded=1;whiteSpace=wrap;html=1;fillColor=#FFF601;strokeColor=#080303;fontFamily=TradeGothic LT Bold;&quot; vertex=&quot;1&quot; parent=&quot;1&quot;&gt;&#10;          &lt;mxGeometry x=&quot;400&quot; y=&quot;250&quot; width=&quot;80&quot; height=&quot;50&quot; as=&quot;geometry&quot; /&gt;&#10;        &lt;/mxCell&gt;&#10;        &lt;mxCell id=&quot;19&quot; value=&quot;Component&amp;lt;br&amp;gt;ID In&quot; style=&quot;rounded=1;whiteSpace=wrap;html=1;fillColor=#FFF601;strokeColor=#080303;fontFamily=TradeGothic LT Bold;&quot; vertex=&quot;1&quot; parent=&quot;1&quot;&gt;&#10;          &lt;mxGeometry x=&quot;400&quot; y=&quot;200&quot; width=&quot;80&quot; height=&quot;50&quot; as=&quot;geometry&quot; /&gt;&#10;        &lt;/mxCell&gt;&#10;        &lt;mxCell id=&quot;20&quot; value=&quot;Replacement Token&quot; style=&quot;rounded=1;whiteSpace=wrap;html=1;fillColor=#7DEA49;strokeColor=#000000;fontFamily=TradeGothic LT Bold;&quot; vertex=&quot;1&quot; parent=&quot;1&quot;&gt;&#10;          &lt;mxGeometry x=&quot;400&quot; y=&quot;150&quot; width=&quot;80&quot; height=&quot;50&quot; as=&quot;geometry&quot; /&gt;&#10;        &lt;/mxCell&gt;&#10;        &lt;mxCell id=&quot;21&quot; value=&quot;Component Replaced Message&quot; style=&quot;rounded=1;whiteSpace=wrap;html=1;fillColor=#6241C5;strokeColor=#000000;fontColor=#FFFFFF;fontFamily=TradeGothic LT Bold;&quot; vertex=&quot;1&quot; parent=&quot;1&quot;&gt;&#10;          &lt;mxGeometry x=&quot;400&quot; y=&quot;390&quot; width=&quot;80&quot; height=&quot;50&quot; as=&quot;geometry&quot; /&gt;&#10;        &lt;/mxCell&gt;&#10;        &lt;mxCell id=&quot;22&quot; value=&quot;Attestation PIN&quot; style=&quot;rounded=1;whiteSpace=wrap;html=1;fillColor=#7DEA49;strokeColor=#000000;fontFamily=TradeGothic LT Bold;&quot; vertex=&quot;1&quot; parent=&quot;1&quot;&gt;&#10;          &lt;mxGeometry x=&quot;500&quot; y=&quot;200&quot; width=&quot;80&quot; height=&quot;50&quot; as=&quot;geometry&quot; /&gt;&#10;        &lt;/mxCell&gt;&#10;        &lt;mxCell id=&quot;23&quot; style=&quot;edgeStyle=orthogonalEdgeStyle;rounded=0;orthogonalLoop=1;jettySize=auto;html=1;entryX=0.5;entryY=0;entryDx=0;entryDy=0;fontFamily=TradeGothic LT Bold;&quot; edge=&quot;1&quot; source=&quot;24&quot; target=&quot;5&quot; parent=&quot;1&quot;&gt;&#10;          &lt;mxGeometry relative=&quot;1&quot; as=&quot;geometry&quot; /&gt;&#10;        &lt;/mxCell&gt;&#10;        &lt;mxCell id=&quot;24&quot; value=&quot;Component&amp;lt;br&amp;gt;ID&quot; style=&quot;rounded=1;whiteSpace=wrap;html=1;fillColor=#FFF601;strokeColor=#080303;fontFamily=TradeGothic LT Bold;&quot; vertex=&quot;1&quot; parent=&quot;1&quot;&gt;&#10;          &lt;mxGeometry x=&quot;500&quot; y=&quot;250&quot; width=&quot;80&quot; height=&quot;50&quot; as=&quot;geometry&quot; /&gt;&#10;        &lt;/mxCell&gt;&#10;        &lt;mxCell id=&quot;25&quot; value=&quot;Component Attestation Data&quot; style=&quot;rounded=1;whiteSpace=wrap;html=1;fillColor=#6241C5;strokeColor=#000000;fontColor=#FFFFFF;fontFamily=TradeGothic LT Bold;&quot; vertex=&quot;1&quot; parent=&quot;1&quot;&gt;&#10;          &lt;mxGeometry x=&quot;500&quot; y=&quot;390&quot; width=&quot;80&quot; height=&quot;50&quot; as=&quot;geometry&quot; /&gt;&#10;        &lt;/mxCell&gt;&#10;        &lt;mxCell id=&quot;26&quot; style=&quot;edgeStyle=orthogonalEdgeStyle;rounded=0;orthogonalLoop=1;jettySize=auto;html=1;entryX=0.5;entryY=0;entryDx=0;entryDy=0;fontFamily=TradeGothic LT Bold;&quot; edge=&quot;1&quot; source=&quot;27&quot; target=&quot;28&quot; parent=&quot;1&quot;&gt;&#10;          &lt;mxGeometry relative=&quot;1&quot; as=&quot;geometry&quot; /&gt;&#10;        &lt;/mxCell&gt;&#10;        &lt;mxCell id=&quot;27&quot; value=&quot;List Components&quot; style=&quot;rounded=0;whiteSpace=wrap;html=1;fillColor=#F0F1F2;strokeColor=#000000;fontFamily=TradeGothic LT Bold;&quot; vertex=&quot;1&quot; parent=&quot;1&quot;&gt;&#10;          &lt;mxGeometry x=&quot;200&quot; y=&quot;320&quot; width=&quot;80&quot; height=&quot;50&quot; as=&quot;geometry&quot; /&gt;&#10;        &lt;/mxCell&gt;&#10;        &lt;mxCell id=&quot;28&quot; value=&quot;Connected Component IDs&quot; style=&quot;rounded=1;whiteSpace=wrap;html=1;fillColor=#FFF601;strokeColor=#000000;fontFamily=TradeGothic LT Bold;&quot; vertex=&quot;1&quot; parent=&quot;1&quot;&gt;&#10;          &lt;mxGeometry x=&quot;200&quot; y=&quot;390&quot; width=&quot;80&quot; height=&quot;50&quot; as=&quot;geometry&quot; /&gt;&#10;        &lt;/mxCell&gt;&#10;        &lt;mxCell id=&quot;29&quot; value=&quot;Provisioned Component IDs&quot; style=&quot;rounded=1;whiteSpace=wrap;html=1;fillColor=#FFF601;strokeColor=#000000;fontFamily=TradeGothic LT Bold;&quot; vertex=&quot;1&quot; parent=&quot;1&quot;&gt;&#10;          &lt;mxGeometry x=&quot;200&quot; y=&quot;440&quot; width=&quot;80&quot; height=&quot;50&quot; as=&quot;geometry&quot; /&gt;&#10;        &lt;/mxCell&gt;&#10;      &lt;/root&gt;&#10;    &lt;/mxGraphModel&gt;&#10;  &lt;/diagram&gt;&#10;&lt;/mxfile&gt;&#10;"><defs/><g><path d="M 240 220 L 240 240 L 240 220 L 240 233.63" fill="none" stroke="rgb(0, 0, 0)" stroke-miterlimit="10" pointer-events="stroke"/><path d="M 240 238.88 L 236.5 231.88 L 240 233.63 L 243.5 231.88 Z" fill="rgb(0, 0, 0)" stroke="rgb(0, 0, 0)" stroke-miterlimit="10" pointer-events="all"/><rect x="200" y="170" width="80" height="50" fill="#f0f1f2" stroke="#000000" pointer-events="all"/><g transform="translate(-0.5 -0.5)"><switch><foreignObject pointer-events="none" width="100%" height="100%" requiredFeatures="http://www.w3.org/TR/SVG11/feature#Extensibility" style="overflow: visible; text-align: left;"><div xmlns="http://www.w3.org/1999/xhtml" style="display: flex; align-items: unsafe center; justify-content: unsafe center; width: 78px; height: 1px; padding-top: 195px; margin-left: 201px;"><div data-drawio-colors="color: rgb(0, 0, 0); " style="box-sizing: border-box; font-size: 0px; text-align: center;"><div style="display: inline-block; font-size: 12px; font-family: &quot;TradeGothic LT Bold&quot;; color: rgb(0, 0, 0); line-height: 1.2; pointer-events: all; white-space: normal; overflow-wrap: normal;">Replace Component</div></div></div></foreignObject><text x="240" y="199" fill="rgb(0, 0, 0)" font-family="TradeGothic LT Bold" font-size="12px" text-anchor="middle">Replace Compo...</text></switch></g><path d="M 340 220 L 340 240 L 340 220 L 340 233.63" fill="none" stroke="rgb(0, 0, 0)" stroke-miterlimit="10" pointer-events="stroke"/><path d="M 340 238.88 L 336.5 231.88 L 340 233.63 L 343.5 231.88 Z" fill="rgb(0, 0, 0)" stroke="rgb(0, 0, 0)" stroke-miterlimit="10" pointer-events="all"/><rect x="300" y="170" width="80" height="50" fill="#f0f1f2" stroke="#000000" pointer-events="all"/><g transform="translate(-0.5 -0.5)"><switch><foreignObject pointer-events="none" width="100%" height="100%" requiredFeatures="http://www.w3.org/TR/SVG11/feature#Extensibility" style="overflow: visible; text-align: left;"><div xmlns="http://www.w3.org/1999/xhtml" style="display: flex; align-items: unsafe center; justify-content: unsafe center; width: 78px; height: 1px; padding-top: 195px; margin-left: 301px;"><div data-drawio-colors="color: rgb(0, 0, 0); " style="box-sizing: border-box; font-size: 0px; text-align: center;"><div style="display: inline-block; font-size: 12px; font-family: &quot;TradeGothic LT Bold&quot;; color: rgb(0, 0, 0); line-height: 1.2; pointer-events: all; white-space: normal; overflow-wrap: normal;">Attestation</div></div></div></foreignObject><text x="340" y="199" fill="rgb(0, 0, 0)" font-family="TradeGothic LT Bold" font-size="12px" text-anchor="middle">Attestation</text></switch></g><rect x="0" y="353" width="50" height="20" rx="3" ry="3" fill="#6241c5" stroke="#000000" pointer-events="all"/><rect x="65" y="348" width="170" height="30" fill="none" stroke="none" pointer-events="all"/><g transform="translate(-0.5 -0.5)"><switch><foreignObject pointer-events="none" width="100%" height="100%" requiredFeatures="http://www.w3.org/TR/SVG11/feature#Extensibility" style="overflow: visible; text-align: left;"><div xmlns="http://www.w3.org/1999/xhtml" style="display: flex; align-items: unsafe center; justify-content: unsafe flex-start; width: 168px; height: 1px; padding-top: 363px; margin-left: 67px;"><div data-drawio-colors="color: rgb(0, 0, 0); " style="box-sizing: border-box; font-size: 0px; text-align: left;"><div style="display: inline-block; font-size: 12px; font-family: &quot;TradeGothic LT Bold&quot;; color: rgb(0, 0, 0); line-height: 1.2; pointer-events: all; white-space: normal; overflow-wrap: normal;">Attacker does not have access</div></div></div></foreignObject><text x="67" y="367" fill="rgb(0, 0, 0)" font-family="TradeGothic LT Bold" font-size="12px">Attacker does not have access</text></switch></g><rect x="0" y="403" width="50" height="20" rx="3" ry="3" fill="#fff601" stroke="#000000" pointer-events="all"/><rect x="65" y="398" width="170" height="30" fill="none" stroke="none" pointer-events="all"/><g transform="translate(-0.5 -0.5)"><switch><foreignObject pointer-events="none" width="100%" height="100%" requiredFeatures="http://www.w3.org/TR/SVG11/feature#Extensibility" style="overflow: visible; text-align: left;"><div xmlns="http://www.w3.org/1999/xhtml" style="display: flex; align-items: unsafe center; justify-content: unsafe flex-start; width: 168px; height: 1px; padding-top: 413px; margin-left: 67px;"><div data-drawio-colors="color: rgb(0, 0, 0); " style="box-sizing: border-box; font-size: 0px; text-align: left;"><div style="display: inline-block; font-size: 12px; font-family: &quot;TradeGothic LT Bold&quot;; color: rgb(0, 0, 0); line-height: 1.2; pointer-events: all; white-space: normal; overflow-wrap: normal;">Attacker always has access</div></div></div></foreignObject><text x="67" y="417" fill="rgb(0, 0, 0)" font-family="TradeGothic LT Bold" font-size="12px">Attacker always has access</text></switch></g><rect x="0" y="428" width="50" height="20" rx="3" ry="3" fill="#f5f5f5" stroke="#000000" pointer-events="all"/><rect x="65" y="423" width="190" height="30" fill="none" stroke="none" pointer-events="all"/><g transform="translate(-0.5 -0.5)"><switch><foreignObject pointer-events="none" width="100%" height="100%" requiredFeatures="http://www.w3.org/TR/SVG11/feature#Extensibility" style="overflow: visible; text-align: left;"><div xmlns="http://www.w3.org/1999/xhtml" style="display: flex; align-items: unsafe center; justify-content: unsafe flex-start; width: 188px; height: 1px; padding-top: 438px; margin-left: 67px;"><div data-drawio-colors="color: rgb(0, 0, 0); " style="box-sizing: border-box; font-size: 0px; text-align: left;"><div style="display: inline-block; font-size: 12px; font-family: &quot;TradeGothic LT Bold&quot;; color: rgb(0, 0, 0); line-height: 1.2; pointer-events: all; white-space: normal; overflow-wrap: normal;">Host tool, required by each team</div></div></div></foreignObject><text x="67" y="442" fill="rgb(0, 0, 0)" font-family="TradeGothic LT Bold" font-size="12px">Host tool, required by each team</text></switch></g><rect x="0" y="378" width="50" height="20" rx="3" ry="3" fill="#7dea49" stroke="#000000" pointer-events="all"/><rect x="65" y="373" width="215" height="30" fill="none" stroke="none" pointer-events="all"/><g transform="translate(-0.5 -0.5)"><switch><foreignObject pointer-events="none" width="100%" height="100%" requiredFeatures="http://www.w3.org/TR/SVG11/feature#Extensibility" style="overflow: visible; text-align: left;"><div xmlns="http://www.w3.org/1999/xhtml" style="display: flex; align-items: unsafe center; justify-content: unsafe flex-start; width: 213px; height: 1px; padding-top: 388px; margin-left: 67px;"><div data-drawio-colors="color: rgb(0, 0, 0); " style="box-sizing: border-box; font-size: 0px; text-align: left;"><div style="display: inline-block; font-size: 12px; font-family: &quot;TradeGothic LT Bold&quot;; color: rgb(0, 0, 0); line-height: 1.2; pointer-events: all; white-space: normal; overflow-wrap: normal;">Attacker has access in some scenarios</div></div></div></foreignObject><text x="67" y="392" fill="rgb(0, 0, 0)" font-family="TradeGothic LT Bold" font-size="12px">Attacker has access in some scenarios</text></switch></g><path d="M 140 220 L 140 240 L 140 220 L 140 233.63" fill="none" stroke="rgb(0, 0, 0)" stroke-miterlimit="10" pointer-events="stroke"/><path d="M 140 238.88 L 136.5 231.88 L 140 233.63 L 143.5 231.88 Z" fill="rgb(0, 0, 0)" stroke="rgb(0, 0, 0)" stroke-miterlimit="10" pointer-events="all"/><rect x="100" y="170" width="80" height="50" fill="#f0f1f2" stroke="#000000" pointer-events="all"/><g transform="translate(-0.5 -0.5)"><switch><foreignObject pointer-events="none" width="100%" height="100%" requiredFeatures="http://www.w3.org/TR/SVG11/feature#Extensibility" style="overflow: visible; text-align: left;"><div xmlns="http://www.w3.org/1999/xhtml" style="display: flex; align-items: unsafe center; justify-content: unsafe center; width: 78px; height: 1px; padding-top: 195px; margin-left: 101px;"><div data-drawio-colors="color: rgb(0, 0, 0); " style="box-sizing: border-box; font-size: 0px; text-align: center;"><div style="display: inline-block; font-size: 12px; font-family: &quot;TradeGothic LT Bold&quot;; color: rgb(0, 0, 0); line-height: 1.2; pointer-events: all; white-space: normal; overflow-wrap: normal;">Boot Board</div></div></div></foreignObject><text x="140" y="199" fill="rgb(0, 0, 0)" font-family="TradeGothic LT Bold" font-size="12px" text-anchor="middle">Boot Board</text></switch></g><rect x="100" y="240" width="80" height="50" rx="7.5" ry="7.5" fill="#7dea49" stroke="#000000" pointer-events="all"/><g transform="translate(-0.5 -0.5)"><switch><foreignObject pointer-events="none" width="100%" height="100%" requiredFeatures="http://www.w3.org/TR/SVG11/feature#Extensibility" style="overflow: visible; text-align: left;"><div xmlns="http://www.w3.org/1999/xhtml" style="display: flex; align-items: unsafe center; justify-content: unsafe center; width: 78px; height: 1px; padding-top: 265px; margin-left: 101px;"><div data-drawio-colors="color: rgb(0, 0, 0); " style="box-sizing: border-box; font-size: 0px; text-align: center;"><div style="display: inline-block; font-size: 12px; font-family: &quot;TradeGothic LT Bold&quot;; color: rgb(0, 0, 0); line-height: 1.2; pointer-events: all; white-space: normal; overflow-wrap: normal;">Boot Message</div></div></div></foreignObject><text x="140" y="269" fill="rgb(0, 0, 0)" font-family="TradeGothic LT Bold" font-size="12px" text-anchor="middle">Boot Message</text></switch></g><path d="M 240 150 L 240 170 L 240 150 L 240 163.63" fill="none" stroke="rgb(0, 0, 0)" stroke-miterlimit="10" pointer-events="stroke"/><path d="M 240 168.88 L 236.5 161.88 L 240 163.63 L 243.5 161.88 Z" fill="rgb(0, 0, 0)" stroke="rgb(0, 0, 0)" stroke-miterlimit="10" pointer-events="all"/><rect x="200" y="100" width="80" height="50" rx="7.5" ry="7.5" fill="#fff601" stroke="#080303" pointer-events="all"/><g transform="translate(-0.5 -0.5)"><switch><foreignObject pointer-events="none" width="100%" height="100%" requiredFeatures="http://www.w3.org/TR/SVG11/feature#Extensibility" style="overflow: visible; text-align: left;"><div xmlns="http://www.w3.org/1999/xhtml" style="display: flex; align-items: unsafe center; justify-content: unsafe center; width: 78px; height: 1px; padding-top: 125px; margin-left: 201px;"><div data-drawio-colors="color: rgb(0, 0, 0); " style="box-sizing: border-box; font-size: 0px; text-align: center;"><div style="display: inline-block; font-size: 12px; font-family: &quot;TradeGothic LT Bold&quot;; color: rgb(0, 0, 0); line-height: 1.2; pointer-events: all; white-space: normal; overflow-wrap: normal;">Component<br />ID Out</div></div></div></foreignObject><text x="240" y="129" fill="rgb(0, 0, 0)" font-family="TradeGothic LT Bold" font-size="12px" text-anchor="middle">Component...</text></switch></g><rect x="200" y="50" width="80" height="50" rx="7.5" ry="7.5" fill="#fff601" stroke="#080303" pointer-events="all"/><g transform="translate(-0.5 -0.5)"><switch><foreignObject pointer-events="none" width="100%" height="100%" requiredFeatures="http://www.w3.org/TR/SVG11/feature#Extensibility" style="overflow: visible; text-align: left;"><div xmlns="http://www.w3.org/1999/xhtml" style="display: flex; align-items: unsafe center; justify-content: unsafe center; width: 78px; height: 1px; padding-top: 75px; margin-left: 201px;"><div data-drawio-colors="color: rgb(0, 0, 0); " style="box-sizing: border-box; font-size: 0px; text-align: center;"><div style="display: inline-block; font-size: 12px; font-family: &quot;TradeGothic LT Bold&quot;; color: rgb(0, 0, 0); line-height: 1.2; pointer-events: all; white-space: normal; overflow-wrap: normal;">Component<br />ID In</div></div></div></foreignObject><text x="240" y="79" fill="rgb(0, 0, 0)" font-family="TradeGothic LT Bold" font-size="12px" text-anchor="middle">Component...</text></switch></g><rect x="200" y="0" width="80" height="50" rx="7.5" ry="7.5" fill="#7dea49" stroke="#000000" pointer-events="all"/><g transform="translate(-0.5 -0.5)"><switch><foreignObject pointer-events="none" width="100%" height="100%" requiredFeatures="http://www.w3.org/TR/SVG11/feature#Extensibility" style="overflow: visible; text-align: left;"><div xmlns="http://www.w3.org/1999/xhtml" style="display: flex; align-items: unsafe center; justify-content: unsafe center; width: 78px; height: 1px; padding-top: 25px; margin-left: 201px;"><div data-drawio-colors="color: rgb(0, 0, 0); " style="box-sizing: border-box; font-size: 0px; text-align: center;"><div style="display: inline-block; font-size: 12px; font-family: &quot;TradeGothic LT Bold&quot;; color: rgb(0, 0, 0); line-height: 1.2; pointer-events: all; white-space: normal; overflow-wrap: normal;">Replacement Token</div></div></div></foreignObject><text x="240" y="29" fill="rgb(0, 0, 0)" font-family="TradeGothic LT Bold" font-size="12px" text-anchor="middle">Replacement T...</text></switch></g><rect x="200" y="240" width="80" height="50" rx="7.5" ry="7.5" fill="#6241c5" stroke="#000000" pointer-events="all"/><g transform="translate(-0.5 -0.5)"><switch><foreignObject pointer-events="none" width="100%" height="100%" requiredFeatures="http://www.w3.org/TR/SVG11/feature#Extensibility" style="overflow: visible; text-align: left;"><div xmlns="http://www.w3.org/1999/xhtml" style="display: flex; align-items: unsafe center; justify-content: unsafe center; width: 78px; height: 1px; padding-top: 265px; margin-left: 201px;"><div data-drawio-colors="color: #FFFFFF; " style="box-sizing: border-box; font-size: 0px; text-align: center;"><div style="display: inline-block; font-size: 12px; font-family: &quot;TradeGothic LT Bold&quot;; color: rgb(255, 255, 255); line-height: 1.2; pointer-events: all; white-space: normal; overflow-wrap: normal;">Component Replaced Message</div></div></div></foreignObject><text x="240" y="269" fill="#FFFFFF" font-family="TradeGothic LT Bold" font-size="12px" text-anchor="middle">Component Rep...</text></switch></g><rect x="300" y="50" width="80" height="50" rx="7.5" ry="7.5" fill="#7dea49" stroke="#000000" pointer-events="all"/><g transform="translate(-0.5 -0.5)"><switch><foreignObject pointer-events="none" width="100%" height="100%" requiredFeatures="http://www.w3.org/TR/SVG11/feature#Extensibility" style="overflow: visible; text-align: left;"><div xmlns="http://www.w3.org/1999/xhtml" style="display: flex; align-items: unsafe center; justify-content: unsafe center; width: 78px; height: 1px; padding-top: 75px; margin-left: 301px;"><div data-drawio-colors="color: rgb(0, 0, 0); " style="box-sizing: border-box; font-size: 0px; text-align: center;"><div style="display: inline-block; font-size: 12px; font-family: &quot;TradeGothic LT Bold&quot;; color: rgb(0, 0, 0); line-height: 1.2; pointer-events: all; white-space: normal; overflow-wrap: normal;">Attestation PIN</div></div></div></foreignObject><text x="340" y="79" fill="rgb(0, 0, 0)" font-family="TradeGothic LT Bold" font-size="12px" text-anchor="middle">Attestation P...</text></switch></g><path d="M 340 150 L 340 170 L 340 150 L 340 163.63" fill="none" stroke="rgb(0, 0, 0)" stroke-miterlimit="10" pointer-events="stroke"/><path d="M 340 168.88 L 336.5 161.88 L 340 163.63 L 343.5 161.88 Z" fill="rgb(0, 0, 0)" stroke="rgb(0, 0, 0)" stroke-miterlimit="10" pointer-events="all"/><rect x="300" y="100" width="80" height="50" rx="7.5" ry="7.5" fill="#fff601" stroke="#080303" pointer-events="all"/><g transform="translate(-0.5 -0.5)"><switch><foreignObject pointer-events="none" width="100%" height="100%" requiredFeatures="http://www.w3.org/TR/SVG11/feature#Extensibility" style="overflow: visible; text-align: left;"><div xmlns="http://www.w3.org/1999/xhtml" style="display: flex; align-items: unsafe center; justify-content: unsafe center; width: 78px; height: 1px; padding-top: 125px; margin-left: 301px;"><div data-drawio-colors="color: rgb(0, 0, 0); " style="box-sizing: border-box; font-size: 0px; text-align: center;"><div style="display: inline-block; font-size: 12px; font-family: &quot;TradeGothic LT Bold&quot;; color: rgb(0, 0, 0); line-height: 1.2; pointer-events: all; white-space: normal; overflow-wrap: normal;">Component<br />ID</div></div></div></foreignObject><text x="340" y="129" fill="rgb(0, 0, 0)" font-family="TradeGothic LT Bold" font-size="12px" text-anchor="middle">Component...</text></switch></g><rect x="300" y="240" width="80" height="50" rx="7.5" ry="7.5" fill="#6241c5" stroke="#000000" pointer-events="all"/><g transform="translate(-0.5 -0.5)"><switch><foreignObject pointer-events="none" width="100%" height="100%" requiredFeatures="http://www.w3.org/TR/SVG11/feature#Extensibility" style="overflow: visible; text-align: left;"><div xmlns="http://www.w3.org/1999/xhtml" style="display: flex; align-items: unsafe center; justify-content: unsafe center; width: 78px; height: 1px; padding-top: 265px; margin-left: 301px;"><div data-drawio-colors="color: #FFFFFF; " style="box-sizing: border-box; font-size: 0px; text-align: center;"><div style="display: inline-block; font-size: 12px; font-family: &quot;TradeGothic LT Bold&quot;; color: rgb(255, 255, 255); line-height: 1.2; pointer-events: all; white-space: normal; overflow-wrap: normal;">Component Attestation Data</div></div></div></foreignObject><text x="340" y="269" fill="#FFFFFF" font-family="TradeGothic LT Bold" font-size="12px" text-anchor="middle">Component Att...</text></switch></g><path d="M 40 220 L 40 240 L 40 220 L 40 233.63" fill="none" stroke="rgb(0, 0, 0)" stroke-miterlimit="10" pointer-events="stroke"/><path d="M 40 238.88 L 36.5 231.88 L 40 233.63 L 43.5 231.88 Z" fill="rgb(0, 0, 0)" stroke="rgb(0, 0, 0)" stroke-miterlimit="10" pointer-events="all"/><rect x="0" y="170" width="80" height="50" fill="#f0f1f2" stroke="#000000" pointer-events="all"/><g transform="translate(-0.5 -0.5)"><switch><foreignObject pointer-events="none" width="100%" height="100%" requiredFeatures="http://www.w3.org/TR/SVG11/feature#Extensibility" style="overflow: visible; text-align: left;"><div xmlns="http://www.w3.org/1999/xhtml" style="display: flex; align-items: unsafe center; justify-content: unsafe center; width: 78px; height: 1px; padding-top: 195px; margin-left: 1px;"><div data-drawio-colors="color: rgb(0, 0, 0); " style="box-sizing: border-box; font-size: 0px; text-align: center;"><div style="display: inline-block; font-size: 12px; font-family: &quot;TradeGothic LT Bold&quot;; color: rgb(0, 0, 0); line-height: 1.2; pointer-events: all; white-space: normal; overflow-wrap: normal;">List Components</div></div></div></foreignObject><text x="40" y="199" fill="rgb(0, 0, 0)" font-family="TradeGothic LT Bold" font-size="12px" text-anchor="middle">List Componen...</text></switch></g><rect x="0" y="240" width="80" height="50" rx="7.5" ry="7.5" fill="#fff601" stroke="#000000" pointer-events="all"/><g transform="translate(-0.5 -0.5)"><switch><foreignObject pointer-events="none" width="100%" height="100%" requiredFeatures="http://www.w3.org/TR/SVG11/feature#Extensibility" style="overflow: visible; text-align: left;"><div xmlns="http://www.w3.org/1999/xhtml" style="display: flex; align-items: unsafe center; justify-content: unsafe center; width: 78px; height: 1px; padding-top: 265px; margin-left: 1px;"><div data-drawio-colors="color: rgb(0, 0, 0); " style="box-sizing: border-box; font-size: 0px; text-align: center;"><div style="display: inline-block; font-size: 12px; font-family: &quot;TradeGothic LT Bold&quot;; color: rgb(0, 0, 0); line-height: 1.2; pointer-events: all; white-space: normal; overflow-wrap: normal;">Connected Component IDs</div></div></div></foreignObject><text x="40" y="269" fill="rgb(0, 0, 0)" font-family="TradeGothic LT Bold" font-size="12px" text-anchor="middle">Connected Com...</text></switch></g><rect x="0" y="290" width="80" height="50" rx="7.5" ry="7.5" fill="#fff601" stroke="#000000" pointer-events="all"/><g transform="translate(-0.5 -0.5)"><switch><foreignObject pointer-events="none" width="100%" height="100%" requiredFeatures="http://www.w3.org/TR/SVG11/feature#Extensibility" style="overflow: visible; text-align: left;"><div xmlns="http://www.w3.org/1999/xhtml" style="display: flex; align-items: unsafe center; justify-content: unsafe center; width: 78px; height: 1px; padding-top: 315px; margin-left: 1px;"><div data-drawio-colors="color: rgb(0, 0, 0); " style="box-sizing: border-box; font-size: 0px; text-align: center;"><div style="display: inline-block; font-size: 12px; font-family: &quot;TradeGothic LT Bold&quot;; color: rgb(0, 0, 0); line-height: 1.2; pointer-events: all; white-space: normal; overflow-wrap: normal;">Provisioned Component IDs</div></div></div></foreignObject><text x="40" y="319" fill="rgb(0, 0, 0)" font-family="TradeGothic LT Bold" font-size="12px" text-anchor="middle">Provisioned C...</text></switch></g></g></svg>